﻿<?xml version="1.0" encoding="utf-8"?>
<svg version="1.1" xmlns:xlink="http://www.w3.org/1999/xlink" width="12px" height="12px" viewBox="8 163.5  12 12" xmlns="http://www.w3.org/2000/svg">
  <path d="M 8.5 164  L 19.5 164  L 19.5 175  L 8.5 175  L 8.5 164  Z " fill-rule="nonzero" fill="#ffffff" stroke="none" />
  <path d="M 8.5 164  L 19.5 164  L 19.5 175  L 8.5 175  L 8.5 164  Z " stroke-width="1" stroke="#797979" fill="none" />
  <path d="M 10.5714285714286 169.5  L 13.1428571428571 172.071428571429  " stroke-width="2.57142857142857" stroke="#797979" fill="none" />
  <path d="M 13.1428571428571 172.071428571429  L 17.4285714285714 166.071428571429  " stroke-width="2.57142857142857" stroke="#797979" fill="none" />
</svg>