﻿<?xml version="1.0" encoding="utf-8"?>
<svg version="1.1" xmlns:xlink="http://www.w3.org/1999/xlink" width="12px" height="12px" viewBox="229 464  12 12" xmlns="http://www.w3.org/2000/svg">
  <path d="M 235 464  C 238.36 464  241 466.64  241 470  C 241 473.36  238.36 476  235 476  C 231.64 476  229 473.36  229 470  C 229 466.64  231.64 464  235 464  Z " fill-rule="nonzero" fill="#f0f0f0" stroke="none" />
  <path d="M 235 464.5  C 238.08 464.5  240.5 466.92  240.5 470  C 240.5 473.08  238.08 475.5  235 475.5  C 231.92 475.5  229.5 473.08  229.5 470  C 229.5 466.92  231.92 464.5  235 464.5  Z " stroke-width="1" stroke="#797979" fill="none" />
</svg>