﻿<?xml version="1.0" encoding="utf-8"?>
<svg version="1.1" xmlns:xlink="http://www.w3.org/1999/xlink" width="12px" height="12px" viewBox="229 521  12 12" xmlns="http://www.w3.org/2000/svg">
  <path d="M 235 521  C 238.36 521  241 523.64  241 527  C 241 530.36  238.36 533  235 533  C 231.64 533  229 530.36  229 527  C 229 523.64  231.64 521  235 521  Z " fill-rule="nonzero" fill="#ffffff" stroke="none" />
  <path d="M 235 521.5  C 238.08 521.5  240.5 523.92  240.5 527  C 240.5 530.08  238.08 532.5  235 532.5  C 231.92 532.5  229.5 530.08  229.5 527  C 229.5 523.92  231.92 521.5  235 521.5  Z " stroke-width="1" stroke="#797979" fill="none" />
</svg>