﻿<?xml version="1.0" encoding="utf-8"?>
<svg version="1.1" xmlns:xlink="http://www.w3.org/1999/xlink" width="124px" height="29px" xmlns="http://www.w3.org/2000/svg">
  <g transform="matrix(1 0 0 1 -906 -404 )">
    <path d="M 0 25.375  L 0 3.625  C 0 1.59499999999999  1.94857142857147 0  4.42857142857143 0  L 59.3428571428571 0  L 119.571428571429 0  C 122.051428571429 0  124 1.59499999999999  124 3.625  L 124 25.375  C 124 27.405  122.051428571429 29  119.571428571429 29  L 4.42857142857143 29  C 1.94857142857147 29  0 27.405  0 25.375  Z " fill-rule="nonzero" fill="#169bd5" stroke="none" transform="matrix(1 0 0 1 906 404 )" />
  </g>
</svg>