﻿<?xml version="1.0" encoding="utf-8"?>
<svg version="1.1" xmlns:xlink="http://www.w3.org/1999/xlink" width="12px" height="12px" viewBox="167 399.5  12 12" xmlns="http://www.w3.org/2000/svg">
  <path d="M 173 399.5  C 176.36 399.5  179 402.14  179 405.5  C 179 408.86  176.36 411.5  173 411.5  C 169.64 411.5  167 408.86  167 405.5  C 167 402.14  169.64 399.5  173 399.5  Z " fill-rule="nonzero" fill="#f0f0f0" stroke="none" />
  <path d="M 173 400  C 176.08 400  178.5 402.42  178.5 405.5  C 178.5 408.58  176.08 411  173 411  C 169.92 411  167.5 408.58  167.5 405.5  C 167.5 402.42  169.92 400  173 400  Z " stroke-width="1" stroke="#797979" fill="none" />
</svg>