﻿<?xml version="1.0" encoding="utf-8"?>
<svg version="1.1" xmlns:xlink="http://www.w3.org/1999/xlink" width="12px" height="12px" viewBox="287 400.5  12 12" xmlns="http://www.w3.org/2000/svg">
  <path d="M 293 400.5  C 296.36 400.5  299 403.14  299 406.5  C 299 409.86  296.36 412.5  293 412.5  C 289.64 412.5  287 409.86  287 406.5  C 287 403.14  289.64 400.5  293 400.5  Z " fill-rule="nonzero" fill="#ffffff" stroke="none" />
  <path d="M 293 401  C 296.08 401  298.5 403.42  298.5 406.5  C 298.5 409.58  296.08 412  293 412  C 289.92 412  287.5 409.58  287.5 406.5  C 287.5 403.42  289.92 401  293 401  Z " stroke-width="1" stroke="#797979" fill="none" />
</svg>