﻿<?xml version="1.0" encoding="utf-8"?>
<svg version="1.1" xmlns:xlink="http://www.w3.org/1999/xlink" width="12px" height="12px" viewBox="776 897.5  12 12" xmlns="http://www.w3.org/2000/svg">
  <path d="M 776.5 900.5  A 2.5 2.5 0 0 1 779 898 L 785 898  A 2.5 2.5 0 0 1 787.5 900.5 L 787.5 906.5  A 2.5 2.5 0 0 1 785 909 L 779 909  A 2.5 2.5 0 0 1 776.5 906.5 L 776.5 900.5  Z " fill-rule="nonzero" fill="#f0f0f0" stroke="none" />
  <path d="M 776.5 900.5  A 2.5 2.5 0 0 1 779 898 L 785 898  A 2.5 2.5 0 0 1 787.5 900.5 L 787.5 906.5  A 2.5 2.5 0 0 1 785 909 L 779 909  A 2.5 2.5 0 0 1 776.5 906.5 L 776.5 900.5  Z " stroke-width="1" stroke="#797979" fill="none" />
</svg>