﻿<?xml version="1.0" encoding="utf-8"?>
<svg version="1.1" xmlns:xlink="http://www.w3.org/1999/xlink" width="12px" height="12px" viewBox="859 833.5  12 12" xmlns="http://www.w3.org/2000/svg">
  <path d="M 859.5 836.5  A 2.5 2.5 0 0 1 862 834 L 868 834  A 2.5 2.5 0 0 1 870.5 836.5 L 870.5 842.5  A 2.5 2.5 0 0 1 868 845 L 862 845  A 2.5 2.5 0 0 1 859.5 842.5 L 859.5 836.5  Z " fill-rule="nonzero" fill="#f0f0f0" stroke="none" />
  <path d="M 859.5 836.5  A 2.5 2.5 0 0 1 862 834 L 868 834  A 2.5 2.5 0 0 1 870.5 836.5 L 870.5 842.5  A 2.5 2.5 0 0 1 868 845 L 862 845  A 2.5 2.5 0 0 1 859.5 842.5 L 859.5 836.5  Z " stroke-width="1" stroke="#797979" fill="none" />
</svg>