﻿<?xml version="1.0" encoding="utf-8"?>
<svg version="1.1" xmlns:xlink="http://www.w3.org/1999/xlink" width="12px" height="12px" viewBox="948 862.5  12 12" xmlns="http://www.w3.org/2000/svg">
  <path d="M 948.5 865.5  A 2.5 2.5 0 0 1 951 863 L 957 863  A 2.5 2.5 0 0 1 959.5 865.5 L 959.5 871.5  A 2.5 2.5 0 0 1 957 874 L 951 874  A 2.5 2.5 0 0 1 948.5 871.5 L 948.5 865.5  Z " fill-rule="nonzero" fill="#f0f0f0" stroke="none" />
  <path d="M 948.5 865.5  A 2.5 2.5 0 0 1 951 863 L 957 863  A 2.5 2.5 0 0 1 959.5 865.5 L 959.5 871.5  A 2.5 2.5 0 0 1 957 874 L 951 874  A 2.5 2.5 0 0 1 948.5 871.5 L 948.5 865.5  Z " stroke-width="1" stroke="#797979" fill="none" />
</svg>