﻿<?xml version="1.0" encoding="utf-8"?>
<svg version="1.1" xmlns:xlink="http://www.w3.org/1999/xlink" width="170px" height="170px" xmlns="http://www.w3.org/2000/svg">
  <g transform="matrix(1 0 0 1 -654 -388 )">
    <path d="M 739 388  C 786.6 388  824 425.4  824 473  C 824 520.6  786.6 558  739 558  C 691.4 558  654 520.6  654 473  C 654 425.4  691.4 388  739 388  Z " fill-rule="nonzero" fill="#d7d7d7" stroke="none" />
  </g>
</svg>