﻿<?xml version="1.0" encoding="utf-8"?>
<svg version="1.1" xmlns:xlink="http://www.w3.org/1999/xlink" width="14px" height="12px" xmlns="http://www.w3.org/2000/svg">
  <g transform="matrix(1 0 0 1 -745 -276 )">
    <path d="M 13.6700336700337 8.96969696969697  C 13.8900112233446 9.15824915824916  14 9.38720538720539  14 9.65656565656566  C 14 9.92592592592593  13.8900112233446 10.1548821548822  13.6700336700337 10.3434343434343  L 12.0673400673401 11.7171717171717  C 11.8473625140292 11.9057239057239  11.5802469135802 12  11.2659932659933 12  C 10.9517396184063 12  10.6846240179574 11.9057239057239  10.4646464646465 11.7171717171717  L 7 8.74747474747475  L 3.53535353535354 11.7171717171717  C 3.31537598204265 11.9057239057239  3.04826038159371 12  2.73400673400673 12  C 2.41975308641975 12  2.15263748597082 11.9057239057239  1.93265993265993 11.7171717171717  L 0.32996632996633 10.3434343434343  C 0.109988776655443 10.1548821548822  0 9.92592592592593  0 9.65656565656566  C 0 9.38720538720539  0.109988776655443 9.15824915824916  0.32996632996633 8.96969696969697  L 3.79461279461279 6  L 0.32996632996633 3.03030303030303  C 0.109988776655443 2.84175084175084  0 2.61279461279461  0 2.34343434343434  C 0 2.07407407407407  0.109988776655443 1.84511784511784  0.32996632996633 1.65656565656566  L 1.93265993265993 0.282828282828283  C 2.15263748597082 0.0942760942760938  2.41975308641975 0  2.73400673400673 0  C 3.04826038159371 0  3.31537598204265 0.0942760942760938  3.53535353535354 0.282828282828283  L 7 3.25252525252525  L 10.4646464646465 0.282828282828283  C 10.6846240179574 0.0942760942760938  10.9517396184063 0  11.2659932659933 0  C 11.5802469135802 0  11.8473625140292 0.0942760942760938  12.0673400673401 0.282828282828283  L 13.6700336700337 1.65656565656566  C 13.8900112233446 1.84511784511784  14 2.07407407407407  14 2.34343434343434  C 14 2.61279461279461  13.8900112233446 2.84175084175084  13.6700336700337 3.03030303030303  L 10.2053872053872 6  L 13.6700336700337 8.96969696969697  Z " fill-rule="nonzero" fill="#8c8c8c" stroke="none" transform="matrix(1 0 0 1 745 276 )" />
  </g>
</svg>