﻿<?xml version="1.0" encoding="utf-8"?>
<svg version="1.1" xmlns:xlink="http://www.w3.org/1999/xlink" width="13px" height="10px" xmlns="http://www.w3.org/2000/svg">
  <g transform="matrix(1 0 0 1 -492 -69 )">
    <path d="M 12.6936026936027 7.47474747474747  C 12.8978675645342 7.63187429854096  13 7.82267115600449  13 8.04713804713805  C 13 8.27160493827161  12.8978675645342 8.46240179573513  12.6936026936027 8.61952861952862  L 11.2053872053872 9.76430976430976  C 11.0011223344557 9.92143658810325  10.7530864197531 10  10.4612794612795 10  C 10.1694725028058 10  9.92143658810325 9.92143658810325  9.71717171717172 9.76430976430976  L 6.5 7.28956228956229  L 3.28282828282828 9.76430976430976  C 3.07856341189675 9.92143658810325  2.83052749719416 10  2.53872053872054 10  C 2.24691358024691 10  1.99887766554433 9.92143658810325  1.79461279461279 9.76430976430976  L 0.306397306397306 8.61952861952862  C 0.102132435465769 8.46240179573513  0 8.27160493827161  0 8.04713804713805  C 0 7.82267115600449  0.102132435465769 7.63187429854096  0.306397306397306 7.47474747474747  L 3.52356902356902 5  L 0.306397306397306 2.52525252525253  C 0.102132435465769 2.36812570145903  0 2.17732884399551  0 1.95286195286195  C 0 1.72839506172839  0.102132435465769 1.53759820426487  0.306397306397306 1.38047138047138  L 1.79461279461279 0.235690235690236  C 1.99887766554433 0.0785634118967449  2.24691358024691 0  2.53872053872054 0  C 2.83052749719416 0  3.07856341189675 0.0785634118967449  3.28282828282828 0.235690235690236  L 6.5 2.71043771043771  L 9.71717171717172 0.235690235690236  C 9.92143658810325 0.0785634118967449  10.1694725028058 0  10.4612794612795 0  C 10.7530864197531 0  11.0011223344557 0.0785634118967449  11.2053872053872 0.235690235690236  L 12.6936026936027 1.38047138047138  C 12.8978675645342 1.53759820426487  13 1.72839506172839  13 1.95286195286195  C 13 2.17732884399551  12.8978675645342 2.36812570145903  12.6936026936027 2.52525252525253  L 9.47643097643098 5  L 12.6936026936027 7.47474747474747  Z " fill-rule="nonzero" fill="#333333" stroke="none" transform="matrix(1 0 0 1 492 69 )" />
  </g>
</svg>