﻿<?xml version="1.0" encoding="utf-8"?>
<svg version="1.1" xmlns:xlink="http://www.w3.org/1999/xlink" width="5px" height="12px" xmlns="http://www.w3.org/2000/svg">
  <g transform="matrix(1 0 0 1 -267 -72 )">
    <path d="M 4.88215488215488 8.96969696969697  C 4.96071829405163 9.15824915824916  5 9.38720538720539  5 9.65656565656566  C 5 9.92592592592593  4.96071829405163 10.1548821548822  4.88215488215488 10.3434343434343  L 4.30976430976431 11.7171717171717  C 4.23120089786757 11.9057239057239  4.1358024691358 12  4.02356902356902 12  C 3.91133557800225 12  3.81593714927048 11.9057239057239  3.73737373737374 11.7171717171717  L 2.5 8.74747474747475  L 1.26262626262626 11.7171717171717  C 1.18406285072952 11.9057239057239  1.08866442199776 12  0.976430976430976 12  C 0.864197530864198 12  0.768799102132436 11.9057239057239  0.69023569023569 11.7171717171717  L 0.117845117845118 10.3434343434343  C 0.0392817059483727 10.1548821548822  0 9.92592592592593  0 9.65656565656566  C 0 9.38720538720539  0.0392817059483727 9.15824915824916  0.117845117845118 8.96969696969697  L 1.35521885521886 6  L 0.117845117845118 3.03030303030303  C 0.0392817059483727 2.84175084175084  0 2.61279461279461  0 2.34343434343434  C 0 2.07407407407407  0.0392817059483727 1.84511784511784  0.117845117845118 1.65656565656566  L 0.69023569023569 0.282828282828283  C 0.768799102132436 0.0942760942760938  0.864197530864198 0  0.976430976430976 0  C 1.08866442199776 0  1.18406285072952 0.0942760942760938  1.26262626262626 0.282828282828283  L 2.5 3.25252525252525  L 3.73737373737374 0.282828282828283  C 3.81593714927048 0.0942760942760938  3.91133557800225 0  4.02356902356902 0  C 4.1358024691358 0  4.23120089786757 0.0942760942760938  4.30976430976431 0.282828282828283  L 4.88215488215488 1.65656565656566  C 4.96071829405163 1.84511784511784  5 2.07407407407407  5 2.34343434343434  C 5 2.61279461279461  4.96071829405163 2.84175084175084  4.88215488215488 3.03030303030303  L 3.64478114478114 6  L 4.88215488215488 8.96969696969697  Z " fill-rule="nonzero" fill="#8c8c8c" stroke="none" transform="matrix(1 0 0 1 267 72 )" />
  </g>
</svg>