﻿<?xml version="1.0" encoding="utf-8"?>
<svg version="1.1" xmlns:xlink="http://www.w3.org/1999/xlink" width="12px" height="14px" xmlns="http://www.w3.org/2000/svg">
  <g transform="matrix(1 0 0 1 -450 -32 )">
    <path d="M 11.7171717171717 10.4646464646465  C 11.9057239057239 10.6846240179573  12 10.9517396184063  12 11.2659932659933  C 12 11.5802469135802  11.9057239057239 11.8473625140292  11.7171717171717 12.0673400673401  L 10.3434343434343 13.6700336700337  C 10.1548821548822 13.8900112233446  9.92592592592593 14  9.65656565656566 14  C 9.38720538720539 14  9.15824915824916 13.8900112233446  8.96969696969697 13.6700336700337  L 6 10.2053872053872  L 3.03030303030303 13.6700336700337  C 2.84175084175084 13.8900112233446  2.61279461279461 14  2.34343434343434 14  C 2.07407407407407 14  1.84511784511785 13.8900112233446  1.65656565656566 13.6700336700337  L 0.282828282828283 12.0673400673401  C 0.0942760942760944 11.8473625140292  0 11.5802469135802  0 11.2659932659933  C 0 10.9517396184063  0.0942760942760944 10.6846240179573  0.282828282828283 10.4646464646465  L 3.25252525252525 7  L 0.282828282828283 3.53535353535353  C 0.0942760942760944 3.31537598204265  0 3.04826038159371  0 2.73400673400673  C 0 2.41975308641975  0.0942760942760944 2.15263748597082  0.282828282828283 1.93265993265993  L 1.65656565656566 0.32996632996633  C 1.84511784511785 0.109988776655443  2.07407407407407 0  2.34343434343434 0  C 2.61279461279461 0  2.84175084175084 0.109988776655443  3.03030303030303 0.32996632996633  L 6 3.7946127946128  L 8.96969696969697 0.32996632996633  C 9.15824915824916 0.109988776655443  9.38720538720539 0  9.65656565656566 0  C 9.92592592592593 0  10.1548821548822 0.109988776655443  10.3434343434343 0.32996632996633  L 11.7171717171717 1.93265993265993  C 11.9057239057239 2.15263748597082  12 2.41975308641975  12 2.73400673400673  C 12 3.04826038159371  11.9057239057239 3.31537598204265  11.7171717171717 3.53535353535353  L 8.74747474747475 7  L 11.7171717171717 10.4646464646465  Z " fill-rule="nonzero" fill="#8c8c8c" stroke="none" transform="matrix(1 0 0 1 450 32 )" />
  </g>
</svg>