﻿<?xml version="1.0" encoding="utf-8"?>
<svg version="1.1" xmlns:xlink="http://www.w3.org/1999/xlink" width="21px" height="8px" xmlns="http://www.w3.org/2000/svg">
  <g transform="matrix(1 0 0 1 -226 -456 )">
    <path d="M 20.7895791583166 0.824742268041237  C 20.9298597194389 0.916380297823594  21 1.02176403207331  21 1.14089347079038  C 21 1.26002290950744  20.9298597194389 1.36540664375716  20.7895791583166 1.45704467353952  L 10.9839679358717 7.86254295532646  C 10.8436873747495 7.95418098510882  10.6823647294589 8  10.5 8  C 10.3176352705411 8  10.1563126252505 7.95418098510882  10.0160320641283 7.86254295532646  L 0.210420841683367 1.45704467353952  C 0.0701402805611225 1.36540664375716  0 1.26002290950744  0 1.14089347079038  C 0 1.02176403207331  0.0701402805611225 0.916380297823594  0.210420841683367 0.824742268041237  L 1.2625250501002 0.13745704467354  C 1.40280561122245 0.0458190148911788  1.56412825651303 0  1.74649298597194 0  C 1.92885771543086 0  2.09018036072144 0.0458190148911788  2.23046092184369 0.13745704467354  L 10.5 5.53951890034364  L 18.7695390781563 0.13745704467354  C 18.9098196392786 0.0458190148911788  19.0711422845691 0  19.2535070140281 0  C 19.435871743487 0  19.5971943887776 0.0458190148911788  19.7374749498998 0.13745704467354  L 20.7895791583166 0.824742268041237  Z " fill-rule="nonzero" fill="#8c8c8c" stroke="none" transform="matrix(1 0 0 1 226 456 )" />
  </g>
</svg>