﻿<?xml version="1.0" encoding="utf-8"?>
<svg version="1.1" xmlns:xlink="http://www.w3.org/1999/xlink" width="16px" height="16px" viewBox="143 1306  16 16" xmlns="http://www.w3.org/2000/svg">
  <path d="M 151 1306  C 155.48 1306  159 1309.52  159 1314  C 159 1318.48  155.48 1322  151 1322  C 146.52 1322  143 1318.48  143 1314  C 143 1309.52  146.52 1306  151 1306  Z " fill-rule="nonzero" fill="#ffffff" stroke="none" />
  <path d="M 151 1306.5  C 155.2 1306.5  158.5 1309.8  158.5 1314  C 158.5 1318.2  155.2 1321.5  151 1321.5  C 146.8 1321.5  143.5 1318.2  143.5 1314  C 143.5 1309.8  146.8 1306.5  151 1306.5  Z " stroke-width="1" stroke="#8c8c8c" fill="none" />
  <path d="M 151 1318  C 148.76 1318  147 1316.24  147 1314  C 147 1311.76  148.76 1310  151 1310  C 153.24 1310  155 1311.76  155 1314  C 155 1316.24  153.24 1318  151 1318  " fill-rule="nonzero" fill="#8c8c8c" stroke="none" />
</svg>