﻿<?xml version="1.0" encoding="utf-8"?>
<svg version="1.1" xmlns:xlink="http://www.w3.org/1999/xlink" width="16px" height="16px" viewBox="243 50  16 16" xmlns="http://www.w3.org/2000/svg">
  <path d="M 251 50  C 255.48 50  259 53.52  259 58  C 259 62.48  255.48 66  251 66  C 246.52 66  243 62.48  243 58  C 243 53.52  246.52 50  251 50  Z " fill-rule="nonzero" fill="#ffffff" stroke="none" />
  <path d="M 251 50.5  C 255.2 50.5  258.5 53.8  258.5 58  C 258.5 62.2  255.2 65.5  251 65.5  C 246.8 65.5  243.5 62.2  243.5 58  C 243.5 53.8  246.8 50.5  251 50.5  Z " stroke-width="1" stroke="#8c8c8c" fill="none" />
  <path d="M 251 62  C 248.76 62  247 60.24  247 58  C 247 55.76  248.76 54  251 54  C 253.24 54  255 55.76  255 58  C 255 60.24  253.24 62  251 62  " fill-rule="nonzero" fill="#8c8c8c" stroke="none" />
</svg>