﻿<?xml version="1.0" encoding="utf-8"?>
<svg version="1.1" xmlns:xlink="http://www.w3.org/1999/xlink" width="16px" height="16px" viewBox="143 1333  16 16" xmlns="http://www.w3.org/2000/svg">
  <path d="M 151 1333  C 155.48 1333  159 1336.52  159 1341  C 159 1345.48  155.48 1349  151 1349  C 146.52 1349  143 1345.48  143 1341  C 143 1336.52  146.52 1333  151 1333  Z " fill-rule="nonzero" fill="#ffffff" stroke="none" />
  <path d="M 151 1333.5  C 155.2 1333.5  158.5 1336.8  158.5 1341  C 158.5 1345.2  155.2 1348.5  151 1348.5  C 146.8 1348.5  143.5 1345.2  143.5 1341  C 143.5 1336.8  146.8 1333.5  151 1333.5  Z " stroke-width="1" stroke="#8c8c8c" fill="none" />
</svg>