﻿<?xml version="1.0" encoding="utf-8"?>
<svg version="1.1" xmlns:xlink="http://www.w3.org/1999/xlink" width="16px" height="16px" viewBox="144 50  16 16" xmlns="http://www.w3.org/2000/svg">
  <path d="M 152 50  C 156.48 50  160 53.52  160 58  C 160 62.48  156.48 66  152 66  C 147.52 66  144 62.48  144 58  C 144 53.52  147.52 50  152 50  Z " fill-rule="nonzero" fill="#ffffff" stroke="none" />
  <path d="M 152 50.5  C 156.2 50.5  159.5 53.8  159.5 58  C 159.5 62.2  156.2 65.5  152 65.5  C 147.8 65.5  144.5 62.2  144.5 58  C 144.5 53.8  147.8 50.5  152 50.5  Z " stroke-width="1" stroke="#8c8c8c" fill="none" />
  <path d="M 152 62  C 149.76 62  148 60.24  148 58  C 148 55.76  149.76 54  152 54  C 154.24 54  156 55.76  156 58  C 156 60.24  154.24 62  152 62  " fill-rule="nonzero" fill="#8c8c8c" stroke="none" />
</svg>