﻿<?xml version="1.0" encoding="utf-8"?>
<svg version="1.1" xmlns:xlink="http://www.w3.org/1999/xlink" width="85px" height="28px" xmlns="http://www.w3.org/2000/svg">
  <g transform="matrix(1 0 0 1 -743 -1684 )">
    <path d="M 0 28  L 0 5  C 0 2.20000000000005  2.20000000000005 0  5 0  L 40.4096385542186 0  L 80 0  C 82.8 0  85 2.20000000000005  85 5  L 85 28  L 46.1927710843382 28  L 0 28  Z " fill-rule="nonzero" fill="#f2f2f2" stroke="none" transform="matrix(1 0 0 1 743 1684 )" />
  </g>
</svg>