﻿<?xml version="1.0" encoding="utf-8"?>
<svg version="1.1" xmlns:xlink="http://www.w3.org/1999/xlink" width="22px" height="20px" xmlns="http://www.w3.org/2000/svg">
  <g transform="matrix(1 0 0 1 -196 -875 )">
    <path d="M 21.7795591182365 9.19254658385093  C 21.9265197060788 9.33057280883368  22 9.48930296756384  22 9.66873706004141  C 22 9.84817115251898  21.9265197060788 10.0069013112491  21.7795591182365 10.1449275362319  L 11.5070140280561 19.7929606625259  C 11.3600534402138 19.9309868875086  11.1910487641951 20  11 20  C 10.8089512358049 20  10.6399465597862 19.9309868875086  10.4929859719439 19.7929606625259  L 0.220440881763527 10.1449275362319  C 0.0734802939211759 10.0069013112491  0 9.84817115251898  0 9.66873706004141  C 0 9.48930296756384  0.0734802939211759 9.33057280883368  0.220440881763527 9.19254658385093  L 1.32264529058116 8.15734989648033  C 1.46960587842351 8.01932367149758  1.63861055444222 7.95031055900621  1.82965931863727 7.95031055900621  C 2.02070808283233 7.95031055900621  2.18971275885104 8.01932367149758  2.33667334669339 8.15734989648033  L 11 16.2939958592133  L 19.6633266533066 8.15734989648033  C 19.810287241149 8.01932367149758  19.9792919171677 7.95031055900621  20.1703406813627 7.95031055900621  C 20.3613894455578 7.95031055900621  20.5303941215765 8.01932367149758  20.6773547094188 8.15734989648033  L 21.7795591182365 9.19254658385093  Z M 21.7795591182365 1.24223602484472  C 21.9265197060788 1.38026224982746  22 1.53899240855762  22 1.7184265010352  C 22 1.89786059351276  21.9265197060788 2.05659075224292  21.7795591182365 2.19461697722567  L 11.5070140280561 11.8426501035197  C 11.3600534402138 11.9806763285024  11.1910487641951 12.0496894409938  11 12.0496894409938  C 10.8089512358049 12.0496894409938  10.6399465597862 11.9806763285024  10.4929859719439 11.8426501035197  L 0.220440881763527 2.19461697722567  C 0.0734802939211759 2.05659075224292  0 1.89786059351276  0 1.7184265010352  C 0 1.53899240855762  0.0734802939211759 1.38026224982746  0.220440881763527 1.24223602484472  L 1.32264529058116 0.20703933747412  C 1.46960587842351 0.0690131124913718  1.63861055444222 0  1.82965931863727 0  C 2.02070808283233 0  2.18971275885104 0.0690131124913718  2.33667334669339 0.20703933747412  L 11 8.34368530020704  L 19.6633266533066 0.20703933747412  C 19.810287241149 0.0690131124913718  19.9792919171677 0  20.1703406813627 0  C 20.3613894455578 0  20.5303941215765 0.0690131124913718  20.6773547094188 0.20703933747412  L 21.7795591182365 1.24223602484472  Z " fill-rule="nonzero" fill="#000000" stroke="none" transform="matrix(1 0 0 1 196 875 )" />
  </g>
</svg>