﻿<?xml version="1.0" encoding="utf-8"?>
<svg version="1.1" xmlns:xlink="http://www.w3.org/1999/xlink" width="12px" height="12px" viewBox="504 767  12 12" xmlns="http://www.w3.org/2000/svg">
  <path d="M 504.5 767.5  L 515.5 767.5  L 515.5 778.5  L 504.5 778.5  L 504.5 767.5  Z " fill-rule="nonzero" fill="#ffffff" stroke="none" />
  <path d="M 504.5 767.5  L 515.5 767.5  L 515.5 778.5  L 504.5 778.5  L 504.5 767.5  Z " stroke-width="1" stroke="#797979" fill="none" />
  <path d="M 506.571428571429 773  L 509.142857142857 775.571428571429  " stroke-width="2.57142857142857" stroke="#797979" fill="none" />
  <path d="M 509.142857142857 775.571428571429  L 513.428571428571 769.571428571429  " stroke-width="2.57142857142857" stroke="#797979" fill="none" />
</svg>