﻿<?xml version="1.0" encoding="utf-8"?>
<svg version="1.1" xmlns:xlink="http://www.w3.org/1999/xlink" width="27px" height="28px" xmlns="http://www.w3.org/2000/svg">
  <defs>
    <filter x="12px" y="172px" width="27px" height="28px" filterUnits="userSpaceOnUse" id="filter11">
      <feOffset dx="1" dy="1" in="SourceAlpha" result="shadowOffsetInner" />
      <feGaussianBlur stdDeviation="2.5" in="shadowOffsetInner" result="shadowGaussian" />
      <feComposite in2="shadowGaussian" operator="atop" in="SourceAlpha" result="shadowComposite" />
      <feColorMatrix type="matrix" values="0 0 0 0 0  0 0 0 0 0  0 0 0 0 0  0 0 0 0.698039215686274 0  " in="shadowComposite" />
    </filter>
    <g id="widget12">
      <path d="M 24.5 176  C 29.26 176  33 179.96  33 185  C 33 190.04  29.26 194  24.5 194  C 19.74 194  16 190.04  16 185  C 16 179.96  19.74 176  24.5 176  Z " fill-rule="nonzero" fill="#f4e833" stroke="none" />
      <path d="M 24.5 176.5  C 28.98 176.5  32.5 180.24  32.5 185  C 32.5 189.76  28.98 193.5  24.5 193.5  C 20.02 193.5  16.5 189.76  16.5 185  C 16.5 180.24  20.02 176.5  24.5 176.5  Z " stroke-width="1" stroke="#ffffff" fill="none" />
    </g>
  </defs>
  <g transform="matrix(1 0 0 1 -12 -172 )">
    <use xlink:href="#widget12" filter="url(#filter11)" />
    <use xlink:href="#widget12" />
  </g>
</svg>