﻿<?xml version="1.0" encoding="utf-8"?>
<svg version="1.1" xmlns:xlink="http://www.w3.org/1999/xlink" width="52px" height="12px" xmlns="http://www.w3.org/2000/svg">
  <g transform="matrix(1 0 0 1 -15 -314 )">
    <path d="M 30.7908902691511 5.72344689378758  C 31.1497584541063 5.80360721442886  31.3291925465839 5.89579158316633  31.3291925465839 6  C 31.3291925465839 6.10420841683367  31.1497584541063 6.19639278557114  30.7908902691511 6.27655310621242  L 5.70600414078675 11.8797595190381  C 5.34713595583161 11.9599198396794  4.9344375431332 12  4.46790890269151 12  C 4.00138026224983 12  3.58868184955141 11.9599198396794  3.22981366459627 11.8797595190381  L 0.538302277432712 11.2785571142285  C 0.179434092477571 11.1983967935872  0 11.1062124248497  0 11.002004008016  C 0 10.8977955911824  0.179434092477571 10.8056112224449  0.538302277432712 10.7254509018036  L 21.6935817805383 6  L 0.538302277432712 1.27454909819639  C 0.179434092477571 1.19438877755511  0 1.10220440881763  0 0.997995991983968  C 0 0.893787575150299  0.179434092477571 0.801603206412824  0.538302277432712 0.721442885771542  L 3.22981366459627 0.120240480961924  C 3.58868184955141 0.0400801603206409  4.00138026224983 0  4.46790890269151 0  C 4.9344375431332 0  5.34713595583161 0.0400801603206409  5.70600414078675 0.120240480961924  L 30.7908902691511 5.72344689378758  Z M 51.4616977225673 5.72344689378758  C 51.8205659075224 5.80360721442886  52 5.89579158316633  52 6  C 52 6.10420841683367  51.8205659075224 6.19639278557114  51.4616977225673 6.27655310621242  L 26.3768115942029 11.8797595190381  C 26.0179434092478 11.9599198396794  25.6052449965493 12  25.1387163561077 12  C 24.672187715666 12  24.2594893029676 11.9599198396794  23.9006211180124 11.8797595190381  L 21.2091097308489 11.2785571142285  C 20.8502415458937 11.1983967935872  20.6708074534161 11.1062124248497  20.6708074534161 11.002004008016  C 20.6708074534161 10.8977955911824  20.8502415458937 10.8056112224449  21.2091097308489 10.7254509018036  L 42.3643892339545 6  L 21.2091097308489 1.27454909819639  C 20.8502415458937 1.19438877755511  20.6708074534161 1.10220440881763  20.6708074534161 0.997995991983968  C 20.6708074534161 0.893787575150299  20.8502415458937 0.801603206412824  21.2091097308489 0.721442885771542  L 23.9006211180124 0.120240480961924  C 24.2594893029676 0.0400801603206409  24.672187715666 0  25.1387163561077 0  C 25.6052449965493 0  26.0179434092478 0.0400801603206409  26.3768115942029 0.120240480961924  L 51.4616977225673 5.72344689378758  Z " fill-rule="nonzero" fill="#000000" stroke="none" transform="matrix(1 0 0 1 15 314 )" />
  </g>
</svg>