﻿<?xml version="1.0" encoding="utf-8"?>
<svg version="1.1" xmlns:xlink="http://www.w3.org/1999/xlink" width="74px" height="72px" xmlns="http://www.w3.org/2000/svg">
  <defs>
    <filter x="-6px" y="599px" width="74px" height="72px" filterUnits="userSpaceOnUse" id="filter15">
      <feOffset dx="9" dy="0" in="SourceAlpha" result="shadowOffsetInner" />
      <feGaussianBlur stdDeviation="11" in="shadowOffsetInner" result="shadowGaussian" />
      <feComposite in2="shadowGaussian" operator="atop" in="SourceAlpha" result="shadowComposite" />
      <feColorMatrix type="matrix" values="0 0 0 0 0.192156862745098  0 0 0 0 0.168627450980392  0 0 0 0 0.168627450980392  0 0 0 0.313725490196078 0  " in="shadowComposite" />
    </filter>
    <g id="widget16">
      <path d="M 24.8882681564246 0.843750000000001  C 25.5474860335196 0.281250000000001  26.2737430167598 0  27.0670391061453 0  C 27.8491620111732 0  28.5335195530726 0.242187500000001  29.1201117318436 0.7265625  C 29.7067039106145 1.2109375  30 1.81770833333333  30 2.546875  C 30 3.203125  29.7486033519553 3.98958333333333  29.2458100558659 4.90625  C 25.536312849162 11.4583333333333  22.9385474860335 15.375  21.4525139664804 16.65625  C 20.3687150837989 17.6041666666667  19.1508379888268 18.078125  17.7988826815642 18.078125  C 16.391061452514 18.078125  15.1815642458101 17.5963541666667  14.1703910614525 16.6328125  C 13.159217877095 15.6692708333333  12.6536312849162 14.5260416666667  12.6536312849162 13.203125  C 12.6536312849162 11.8697916666667  13.1675977653631 10.765625  14.195530726257 9.890625  L 24.8882681564246 0.843750000000001  Z M 9.73743016759777 16.3203125  C 10.3184357541899 16.2421875  11.0167597765363 16.1875  11.8324022346369 16.15625  C 12.268156424581 16.9479166666667  12.8631284916201 17.625  13.6173184357542 18.1875  C 14.3715083798883 18.75  15.2122905027933 19.1458333333333  16.1396648044693 19.375  L 16.1564245810056 20.484375  C 16.2011173184358 22.703125  15.4776536312849 24.5104166666667  13.9860335195531 25.90625  C 12.4944134078212 27.3020833333333  10.5474860335196 28  8.14525139664804 28  C 6.77094972067039 28  5.55307262569832 27.7578125  4.49162011173184 27.2734375  C 3.43016759776536 26.7890625  2.57821229050279 26.125  1.93575418994413 25.28125  C 1.29329608938548 24.4375  0.810055865921788 23.484375  0.486033519553073 22.421875  C 0.162011173184358 21.359375  0 20.2135416666667  0 18.984375  C 0.0782122905027934 19.0364583333333  0.307262569832402 19.1927083333333  0.687150837988827 19.453125  C 1.06703910614525 19.7135416666667  1.41340782122905 19.9453125  1.72625698324022 20.1484375  C 2.0391061452514 20.3515625  2.36871508379888 20.5416666666667  2.71508379888268 20.71875  C 3.06145251396648 20.8958333333333  3.31843575418994 20.984375  3.48603351955307 20.984375  C 3.94413407821229 20.984375  4.25139664804469 20.7916666666667  4.40782122905028 20.40625  C 4.68715083798883 19.71875  5.00837988826816 19.1328125  5.37150837988827 18.6484375  C 5.73463687150838 18.1640625  6.12290502793296 17.7682291666667  6.53631284916201 17.4609375  C 6.94972067039106 17.1536458333333  7.4413407821229 16.90625  8.01117318435754 16.71875  C 8.58100558659218 16.53125  9.15642458100559 16.3984375  9.73743016759777 16.3203125  Z " fill-rule="nonzero" fill="#189f76" stroke="none" transform="matrix(1 0 0 1 7 621 )" />
    </g>
  </defs>
  <g transform="matrix(1 0 0 1 6 -599 )">
    <use xlink:href="#widget16" filter="url(#filter15)" />
    <use xlink:href="#widget16" />
  </g>
</svg>