﻿<?xml version="1.0" encoding="utf-8"?>
<svg version="1.1" xmlns:xlink="http://www.w3.org/1999/xlink" width="12px" height="12px" viewBox="349 313.5  12 12" xmlns="http://www.w3.org/2000/svg">
  <path d="M 355 313.5  C 358.36 313.5  361 316.14  361 319.5  C 361 322.86  358.36 325.5  355 325.5  C 351.64 325.5  349 322.86  349 319.5  C 349 316.14  351.64 313.5  355 313.5  Z " fill-rule="nonzero" fill="#f0f0f0" stroke="none" />
  <path d="M 355 314  C 358.08 314  360.5 316.42  360.5 319.5  C 360.5 322.58  358.08 325  355 325  C 351.92 325  349.5 322.58  349.5 319.5  C 349.5 316.42  351.92 314  355 314  Z " stroke-width="1" stroke="#797979" fill="none" />
</svg>