﻿<?xml version="1.0" encoding="utf-8"?>
<svg version="1.1" xmlns:xlink="http://www.w3.org/1999/xlink" width="64px" height="66px" xmlns="http://www.w3.org/2000/svg">
  <g transform="matrix(1 0 0 1 -93 -312 )">
    <path d="M 125 312  C 142.92 312  157 326.52  157 345  C 157 363.48  142.92 378  125 378  C 107.08 378  93 363.48  93 345  C 93 326.52  107.08 312  125 312  Z " fill-rule="nonzero" fill="#ffffff" stroke="none" />
    <path d="M 125 312.5  C 142.64 312.5  156.5 326.8  156.5 345  C 156.5 363.2  142.64 377.5  125 377.5  C 107.36 377.5  93.5 363.2  93.5 345  C 93.5 326.8  107.36 312.5  125 312.5  Z " stroke-width="1" stroke="#797979" fill="none" />
  </g>
</svg>