﻿<?xml version="1.0" encoding="utf-8"?>
<svg version="1.1" xmlns:xlink="http://www.w3.org/1999/xlink" width="12px" height="12px" viewBox="231 413.5  12 12" xmlns="http://www.w3.org/2000/svg">
  <path d="M 237 413.5  C 240.36 413.5  243 416.14  243 419.5  C 243 422.86  240.36 425.5  237 425.5  C 233.64 425.5  231 422.86  231 419.5  C 231 416.14  233.64 413.5  237 413.5  Z " fill-rule="nonzero" fill="#f0f0f0" stroke="none" />
  <path d="M 237 414  C 240.08 414  242.5 416.42  242.5 419.5  C 242.5 422.58  240.08 425  237 425  C 233.92 425  231.5 422.58  231.5 419.5  C 231.5 416.42  233.92 414  237 414  Z " stroke-width="1" stroke="#797979" fill="none" />
</svg>