﻿<?xml version="1.0" encoding="utf-8"?>
<svg version="1.1" xmlns:xlink="http://www.w3.org/1999/xlink" width="12px" height="12px" viewBox="86 411.5  12 12" xmlns="http://www.w3.org/2000/svg">
  <path d="M 92 411.5  C 95.36 411.5  98 414.14  98 417.5  C 98 420.86  95.36 423.5  92 423.5  C 88.64 423.5  86 420.86  86 417.5  C 86 414.14  88.64 411.5  92 411.5  Z " fill-rule="nonzero" fill="#ffffff" stroke="none" />
  <path d="M 92 412  C 95.08 412  97.5 414.42  97.5 417.5  C 97.5 420.58  95.08 423  92 423  C 88.92 423  86.5 420.58  86.5 417.5  C 86.5 414.42  88.92 412  92 412  Z " stroke-width="1" stroke="#797979" fill="none" />
  <path d="M 92 420.5  C 90.32 420.5  89 419.18  89 417.5  C 89 415.82  90.32 414.5  92 414.5  C 93.68 414.5  95 415.82  95 417.5  C 95 419.18  93.68 420.5  92 420.5  " fill-rule="nonzero" fill="#797979" stroke="none" />
</svg>