﻿<?xml version="1.0" encoding="utf-8"?>
<svg version="1.1" xmlns:xlink="http://www.w3.org/1999/xlink" width="12px" height="12px" viewBox="380 414.5  12 12" xmlns="http://www.w3.org/2000/svg">
  <path d="M 386 414.5  C 389.36 414.5  392 417.14  392 420.5  C 392 423.86  389.36 426.5  386 426.5  C 382.64 426.5  380 423.86  380 420.5  C 380 417.14  382.64 414.5  386 414.5  Z " fill-rule="nonzero" fill="#ffffff" stroke="none" />
  <path d="M 386 415  C 389.08 415  391.5 417.42  391.5 420.5  C 391.5 423.58  389.08 426  386 426  C 382.92 426  380.5 423.58  380.5 420.5  C 380.5 417.42  382.92 415  386 415  Z " stroke-width="1" stroke="#797979" fill="none" />
  <path d="M 386 423.5  C 384.32 423.5  383 422.18  383 420.5  C 383 418.82  384.32 417.5  386 417.5  C 387.68 417.5  389 418.82  389 420.5  C 389 422.18  387.68 423.5  386 423.5  " fill-rule="nonzero" fill="#797979" stroke="none" />
</svg>