﻿<?xml version="1.0" encoding="utf-8"?>
<svg version="1.1" xmlns:xlink="http://www.w3.org/1999/xlink" width="12px" height="12px" viewBox="118 402.5  12 12" xmlns="http://www.w3.org/2000/svg">
  <path d="M 118.5 403  L 129.5 403  L 129.5 414  L 118.5 414  L 118.5 403  Z " fill-rule="nonzero" fill="#ffffff" stroke="none" />
  <path d="M 118.5 403  L 129.5 403  L 129.5 414  L 118.5 414  L 118.5 403  Z " stroke-width="1" stroke="#797979" fill="none" />
  <path d="M 120.571428571429 408.5  L 123.142857142857 411.071428571429  " stroke-width="2.57142857142857" stroke="#797979" fill="none" />
  <path d="M 123.142857142857 411.071428571429  L 127.428571428571 405.071428571429  " stroke-width="2.57142857142857" stroke="#797979" fill="none" />
</svg>