﻿<?xml version="1.0" encoding="utf-8"?>
<svg version="1.1" xmlns:xlink="http://www.w3.org/1999/xlink" width="12px" height="12px" viewBox="118 422.5  12 12" xmlns="http://www.w3.org/2000/svg">
  <path d="M 118.5 423  L 129.5 423  L 129.5 434  L 118.5 434  L 118.5 423  Z " fill-rule="nonzero" fill="#ffffff" stroke="none" />
  <path d="M 118.5 423  L 129.5 423  L 129.5 434  L 118.5 434  L 118.5 423  Z " stroke-width="1" stroke="#797979" fill="none" />
  <path d="M 120.571428571429 428.5  L 123.142857142857 431.071428571429  " stroke-width="2.57142857142857" stroke="#797979" fill="none" />
  <path d="M 123.142857142857 431.071428571429  L 127.428571428571 425.071428571429  " stroke-width="2.57142857142857" stroke="#797979" fill="none" />
</svg>