﻿<?xml version="1.0" encoding="utf-8"?>
<svg version="1.1" xmlns:xlink="http://www.w3.org/1999/xlink" width="12px" height="12px" viewBox="14 598.5  12 12" xmlns="http://www.w3.org/2000/svg">
  <path d="M 14.5 599  L 25.5 599  L 25.5 610  L 14.5 610  L 14.5 599  Z " fill-rule="nonzero" fill="#ffffff" stroke="none" />
  <path d="M 14.5 599  L 25.5 599  L 25.5 610  L 14.5 610  L 14.5 599  Z " stroke-width="1" stroke="#797979" fill="none" />
  <path d="M 16.5714285714286 604.5  L 19.1428571428571 607.071428571429  " stroke-width="2.57142857142857" stroke="#797979" fill="none" />
  <path d="M 19.1428571428571 607.071428571429  L 23.4285714285714 601.071428571429  " stroke-width="2.57142857142857" stroke="#797979" fill="none" />
</svg>