﻿<?xml version="1.0" encoding="utf-8"?>
<svg version="1.1" xmlns:xlink="http://www.w3.org/1999/xlink" width="12px" height="12px" viewBox="14 497.5  12 12" xmlns="http://www.w3.org/2000/svg">
  <path d="M 14.5 498  L 25.5 498  L 25.5 509  L 14.5 509  L 14.5 498  Z " fill-rule="nonzero" fill="#ffffff" stroke="none" />
  <path d="M 14.5 498  L 25.5 498  L 25.5 509  L 14.5 509  L 14.5 498  Z " stroke-width="1" stroke="#797979" fill="none" />
  <path d="M 16.5714285714286 503.5  L 19.1428571428571 506.071428571429  " stroke-width="2.57142857142857" stroke="#797979" fill="none" />
  <path d="M 19.1428571428571 506.071428571429  L 23.4285714285714 500.071428571429  " stroke-width="2.57142857142857" stroke="#797979" fill="none" />
</svg>