﻿<?xml version="1.0" encoding="utf-8"?>
<svg version="1.1" xmlns:xlink="http://www.w3.org/1999/xlink" width="19px" height="7px" xmlns="http://www.w3.org/2000/svg">
  <g transform="matrix(1 0 0 1 -315 -167 )">
    <path d="M 18.809619238477 5.72508591065292  C 18.936539746159 5.80526918671248  19 5.89747995418098  19 6.00171821305842  C 19 6.10595647193585  18.936539746159 6.19816723940435  18.809619238477 6.27835051546392  L 17.8577154308617 6.87972508591065  C 17.7307949231797 6.95990836197022  17.5848363393454 7  17.4198396793587 7  C 17.2548430193721 7  17.1088844355377 6.95990836197022  16.9819639278557 6.87972508591065  L 9.5 2.15292096219931  L 2.01803607214429 6.87972508591065  C 1.89111556446226 6.95990836197022  1.74515698062792 7  1.58016032064128 7  C 1.41516366065464 7  1.26920507682031 6.95990836197022  1.14228456913828 6.87972508591065  L 0.190380761523046 6.27835051546392  C 0.0634602538410155 6.19816723940435  0 6.10595647193585  0 6.00171821305842  C 0 5.89747995418098  0.0634602538410155 5.80526918671248  0.190380761523046 5.72508591065292  L 9.06212424849699 0.120274914089347  C 9.18904475617903 0.0400916380297814  9.33500334001336 0  9.5 0  C 9.66499665998664 0  9.81095524382098 0.0400916380297814  9.93787575150301 0.120274914089347  L 18.809619238477 5.72508591065292  Z " fill-rule="nonzero" fill="#8c8c8c" stroke="none" transform="matrix(1 0 0 1 315 167 )" />
  </g>
</svg>