﻿<?xml version="1.0" encoding="utf-8"?>
<svg version="1.1" xmlns:xlink="http://www.w3.org/1999/xlink" width="20px" height="8px" xmlns="http://www.w3.org/2000/svg">
  <g transform="matrix(1 0 0 1 -249 -381 )">
    <path d="M 19.7995991983968 6.54295532646048  C 19.9331997327989 6.63459335624284  20 6.73997709049255  20 6.85910652920962  C 20 6.97823596792669  19.9331997327989 7.0836197021764  19.7995991983968 7.17525773195876  L 18.7975951903808 7.86254295532646  C 18.6639946559786 7.95418098510882  18.5103540414162 8  18.3366733466934 8  C 18.1629926519706 8  18.0093520374081 7.95418098510882  17.875751503006 7.86254295532646  L 10 2.46048109965636  L 2.12424849699399 7.86254295532646  C 1.99064796259185 7.95418098510882  1.83700734802939 8  1.66332665330661 8  C 1.48964595858383 8  1.33600534402138 7.95418098510882  1.20240480961924 7.86254295532646  L 0.200400801603206 7.17525773195876  C 0.066800267201069 7.0836197021764  0 6.97823596792669  0 6.85910652920962  C 0 6.73997709049255  0.066800267201069 6.63459335624284  0.200400801603206 6.54295532646048  L 9.53907815631263 0.13745704467354  C 9.67267869071476 0.0458190148911788  9.82631930527722 0  10 0  C 10.1736806947228 0  10.3273213092852 0.0458190148911788  10.4609218436874 0.13745704467354  L 19.7995991983968 6.54295532646048  Z " fill-rule="nonzero" fill="#8c8c8c" stroke="none" transform="matrix(1 0 0 1 249 381 )" />
  </g>
</svg>