﻿<?xml version="1.0" encoding="utf-8"?>
<svg version="1.1" xmlns:xlink="http://www.w3.org/1999/xlink" width="295px" height="16px" xmlns="http://www.w3.org/2000/svg">
  <g transform="matrix(1 0 0 1 -429 -1123 )">
    <path d="M 0 16  L 0 5  C 0 2.19999999999999  2.33453237410071 0  5.30575539568345 0  L 146.910471622702 0  L 289.694244604317 0  C 292.665467625899 0  295 2.19999999999999  295 5  L 295 16  L 0 16  Z " fill-rule="nonzero" fill="#f2f2f2" stroke="none" transform="matrix(1 0 0 1 429 1123 )" />
  </g>
</svg>