﻿<?xml version="1.0" encoding="utf-8"?>
<svg version="1.1" xmlns:xlink="http://www.w3.org/1999/xlink" width="35px" height="31px" xmlns="http://www.w3.org/2000/svg">
  <g transform="matrix(1 0 0 1 -371 -1052 )">
    <path d="M 27.275390625 17.6998697916667  C 27.5640190972222 17.4442274305556  27.7083333333333 17.1414930555556  27.7083333333333 16.7916666666667  L 27.7083333333333 14.2083333333333  C 27.7083333333333 13.8585069444444  27.5640190972222 13.5557725694444  27.275390625 13.3001302083333  C 26.9867621527778 13.0444878472222  26.6449652777778 12.9166666666667  26.25 12.9166666666667  L 20.4166666666667 12.9166666666667  L 20.4166666666667 7.75  C 20.4166666666667 7.40017361111111  20.2723524305556 7.09743923611111  19.9837239583333 6.841796875  C 19.6950954861111 6.58615451388889  19.3532986111111 6.45833333333333  18.9583333333333 6.45833333333333  L 16.0416666666667 6.45833333333333  C 15.6467013888889 6.45833333333333  15.3049045138889 6.58615451388889  15.0162760416667 6.841796875  C 14.7276475694444 7.09743923611111  14.5833333333333 7.40017361111111  14.5833333333333 7.75  L 14.5833333333333 12.9166666666667  L 8.75 12.9166666666667  C 8.35503472222222 12.9166666666667  8.01323784722222 13.0444878472222  7.724609375 13.3001302083333  C 7.43598090277778 13.5557725694444  7.29166666666667 13.8585069444444  7.29166666666667 14.2083333333333  L 7.29166666666667 16.7916666666667  C 7.29166666666667 17.1414930555556  7.43598090277778 17.4442274305556  7.724609375 17.6998697916667  C 8.01323784722222 17.9555121527778  8.35503472222222 18.0833333333333  8.75 18.0833333333333  L 14.5833333333333 18.0833333333333  L 14.5833333333333 23.25  C 14.5833333333333 23.5998263888889  14.7276475694444 23.9025607638889  15.0162760416667 24.158203125  C 15.3049045138889 24.4138454861111  15.6467013888889 24.5416666666667  16.0416666666667 24.5416666666667  L 18.9583333333333 24.5416666666667  C 19.3532986111111 24.5416666666667  19.6950954861111 24.4138454861111  19.9837239583333 24.158203125  C 20.2723524305556 23.9025607638889  20.4166666666667 23.5998263888889  20.4166666666667 23.25  L 20.4166666666667 18.0833333333333  L 26.25 18.0833333333333  C 26.6449652777778 18.0833333333333  26.9867621527778 17.9555121527778  27.275390625 17.6998697916667  Z M 32.6529947916667 7.7197265625  C 34.2176649305556 10.0945095486111  35 12.6879340277778  35 15.5  C 35 18.3120659722222  34.2176649305556 20.9054904513889  32.6529947916667 23.2802734375  C 31.0883246527778 25.6550564236111  28.9653862847222 27.5353732638889  26.2841796875 28.9212239583333  C 23.6029730902778 30.3070746527778  20.6749131944444 31  17.5 31  C 14.3250868055556 31  11.3970269097222 30.3070746527778  8.7158203125 28.9212239583333  C 6.03461371527778 27.5353732638889  3.91167534722222 25.6550564236111  2.34700520833333 23.2802734375  C 0.782335069444444 20.9054904513889  0 18.3120659722222  0 15.5  C 0 12.6879340277778  0.782335069444444 10.0945095486111  2.34700520833333 7.7197265625  C 3.91167534722222 5.34494357638889  6.03461371527778 3.46462673611111  8.7158203125 2.07877604166667  C 11.3970269097222 0.69292534722222  14.3250868055556 0  17.5 0  C 20.6749131944444 0  23.6029730902778 0.69292534722222  26.2841796875 2.07877604166667  C 28.9653862847222 3.46462673611111  31.0883246527778 5.34494357638889  32.6529947916667 7.7197265625  Z " fill-rule="nonzero" fill="#000000" stroke="none" transform="matrix(1 0 0 1 371 1052 )" />
  </g>
</svg>