﻿<?xml version="1.0" encoding="utf-8"?>
<svg version="1.1" xmlns:xlink="http://www.w3.org/1999/xlink" width="12px" height="12px" viewBox="778 835.5  12 12" xmlns="http://www.w3.org/2000/svg">
  <path d="M 778.5 838.5  A 2.5 2.5 0 0 1 781 836 L 787 836  A 2.5 2.5 0 0 1 789.5 838.5 L 789.5 844.5  A 2.5 2.5 0 0 1 787 847 L 781 847  A 2.5 2.5 0 0 1 778.5 844.5 L 778.5 838.5  Z " fill-rule="nonzero" fill="#f0f0f0" stroke="none" />
  <path d="M 778.5 838.5  A 2.5 2.5 0 0 1 781 836 L 787 836  A 2.5 2.5 0 0 1 789.5 838.5 L 789.5 844.5  A 2.5 2.5 0 0 1 787 847 L 781 847  A 2.5 2.5 0 0 1 778.5 844.5 L 778.5 838.5  Z " stroke-width="1" stroke="#797979" fill="none" />
</svg>