﻿<?xml version="1.0" encoding="utf-8"?>
<svg version="1.1" xmlns:xlink="http://www.w3.org/1999/xlink" width="12px" height="12px" viewBox="778 897.5  12 12" xmlns="http://www.w3.org/2000/svg">
  <path d="M 778.5 900.5  A 2.5 2.5 0 0 1 781 898 L 787 898  A 2.5 2.5 0 0 1 789.5 900.5 L 789.5 906.5  A 2.5 2.5 0 0 1 787 909 L 781 909  A 2.5 2.5 0 0 1 778.5 906.5 L 778.5 900.5  Z " fill-rule="nonzero" fill="#ffffff" stroke="none" />
  <path d="M 778.5 900.5  A 2.5 2.5 0 0 1 781 898 L 787 898  A 2.5 2.5 0 0 1 789.5 900.5 L 789.5 906.5  A 2.5 2.5 0 0 1 787 909 L 781 909  A 2.5 2.5 0 0 1 778.5 906.5 L 778.5 900.5  Z " stroke-width="1" stroke="#797979" fill="none" />
</svg>