﻿<?xml version="1.0" encoding="utf-8"?>
<svg version="1.1" xmlns:xlink="http://www.w3.org/1999/xlink" width="12px" height="12px" viewBox="988 833.5  12 12" xmlns="http://www.w3.org/2000/svg">
  <path d="M 988.5 836.5  A 2.5 2.5 0 0 1 991 834 L 997 834  A 2.5 2.5 0 0 1 999.5 836.5 L 999.5 842.5  A 2.5 2.5 0 0 1 997 845 L 991 845  A 2.5 2.5 0 0 1 988.5 842.5 L 988.5 836.5  Z " fill-rule="nonzero" fill="#ffffff" stroke="none" />
  <path d="M 988.5 836.5  A 2.5 2.5 0 0 1 991 834 L 997 834  A 2.5 2.5 0 0 1 999.5 836.5 L 999.5 842.5  A 2.5 2.5 0 0 1 997 845 L 991 845  A 2.5 2.5 0 0 1 988.5 842.5 L 988.5 836.5  Z " stroke-width="1" stroke="#797979" fill="none" />
  <path d="M 990.571428571429 839.5  L 993.142857142857 842.071428571429  " stroke-width="2.57142857142857" stroke="#797979" fill="none" />
  <path d="M 993.142857142857 842.071428571429  L 997.428571428571 836.071428571429  " stroke-width="2.57142857142857" stroke="#797979" fill="none" />
</svg>