﻿<?xml version="1.0" encoding="utf-8"?>
<svg version="1.1" xmlns:xlink="http://www.w3.org/1999/xlink" width="12px" height="12px" viewBox="894 932.5  12 12" xmlns="http://www.w3.org/2000/svg">
  <path d="M 894.5 935.5  A 2.5 2.5 0 0 1 897 933 L 903 933  A 2.5 2.5 0 0 1 905.5 935.5 L 905.5 941.5  A 2.5 2.5 0 0 1 903 944 L 897 944  A 2.5 2.5 0 0 1 894.5 941.5 L 894.5 935.5  Z " fill-rule="nonzero" fill="#f0f0f0" stroke="none" />
  <path d="M 894.5 935.5  A 2.5 2.5 0 0 1 897 933 L 903 933  A 2.5 2.5 0 0 1 905.5 935.5 L 905.5 941.5  A 2.5 2.5 0 0 1 903 944 L 897 944  A 2.5 2.5 0 0 1 894.5 941.5 L 894.5 935.5  Z " stroke-width="1" stroke="#797979" fill="none" />
</svg>