﻿<?xml version="1.0" encoding="utf-8"?>
<svg version="1.1" xmlns:xlink="http://www.w3.org/1999/xlink" width="12px" height="12px" viewBox="838 2260.5  12 12" xmlns="http://www.w3.org/2000/svg">
  <path d="M 838.5 2261  L 849.5 2261  L 849.5 2272  L 838.5 2272  L 838.5 2261  Z " fill-rule="nonzero" fill="#ffffff" stroke="none" />
  <path d="M 838.5 2261  L 849.5 2261  L 849.5 2272  L 838.5 2272  L 838.5 2261  Z " stroke-width="1" stroke="#797979" fill="none" />
  <path d="M 840.571428571429 2266.5  L 843.142857142857 2269.07142857143  " stroke-width="2.57142857142857" stroke="#797979" fill="none" />
  <path d="M 843.142857142857 2269.07142857143  L 847.428571428571 2263.07142857143  " stroke-width="2.57142857142857" stroke="#797979" fill="none" />
</svg>