﻿<?xml version="1.0" encoding="utf-8"?>
<svg version="1.1" xmlns:xlink="http://www.w3.org/1999/xlink" width="12px" height="12px" viewBox="838 1902.5  12 12" xmlns="http://www.w3.org/2000/svg">
  <path d="M 838.5 1903  L 849.5 1903  L 849.5 1914  L 838.5 1914  L 838.5 1903  Z " fill-rule="nonzero" fill="#ffffff" stroke="none" />
  <path d="M 838.5 1903  L 849.5 1903  L 849.5 1914  L 838.5 1914  L 838.5 1903  Z " stroke-width="1" stroke="#797979" fill="none" />
  <path d="M 840.571428571429 1908.5  L 843.142857142857 1911.07142857143  " stroke-width="2.57142857142857" stroke="#797979" fill="none" />
  <path d="M 843.142857142857 1911.07142857143  L 847.428571428571 1905.07142857143  " stroke-width="2.57142857142857" stroke="#797979" fill="none" />
</svg>