﻿<?xml version="1.0" encoding="utf-8"?>
<svg version="1.1" xmlns:xlink="http://www.w3.org/1999/xlink" width="12px" height="12px" viewBox="1085 194.5  12 12" xmlns="http://www.w3.org/2000/svg">
  <path d="M 1085.5 195  L 1096.5 195  L 1096.5 206  L 1085.5 206  L 1085.5 195  Z " fill-rule="nonzero" fill="#ffffff" stroke="none" />
  <path d="M 1085.5 195  L 1096.5 195  L 1096.5 206  L 1085.5 206  L 1085.5 195  Z " stroke-width="1" stroke="#797979" fill="none" />
  <path d="M 1087.57142857143 200.5  L 1090.14285714286 203.071428571429  " stroke-width="2.57142857142857" stroke="#797979" fill="none" />
  <path d="M 1090.14285714286 203.071428571429  L 1094.42857142857 197.071428571429  " stroke-width="2.57142857142857" stroke="#797979" fill="none" />
</svg>