﻿<?xml version="1.0" encoding="utf-8"?>
<svg version="1.1" xmlns:xlink="http://www.w3.org/1999/xlink" width="12px" height="12px" viewBox="1085 194.5  12 12" xmlns="http://www.w3.org/2000/svg">
  <path d="M 1085.5 195  L 1096.5 195  L 1096.5 206  L 1085.5 206  L 1085.5 195  Z " fill-rule="nonzero" fill="#ffffff" stroke="none" />
  <path d="M 1085.5 195  L 1096.5 195  L 1096.5 206  L 1085.5 206  L 1085.5 195  Z " stroke-width="1" stroke="#797979" fill="none" />
</svg>