﻿<?xml version="1.0" encoding="utf-8"?>
<svg version="1.1" xmlns:xlink="http://www.w3.org/1999/xlink" width="12px" height="12px" viewBox="247 234.5  12 12" xmlns="http://www.w3.org/2000/svg">
  <path d="M 247.5 235  L 258.5 235  L 258.5 246  L 247.5 246  L 247.5 235  Z " fill-rule="nonzero" fill="#ffffff" stroke="none" />
  <path d="M 247.5 235  L 258.5 235  L 258.5 246  L 247.5 246  L 247.5 235  Z " stroke-width="1" stroke="#797979" fill="none" />
</svg>