﻿<?xml version="1.0" encoding="utf-8"?>
<svg version="1.1" xmlns:xlink="http://www.w3.org/1999/xlink" width="12px" height="12px" viewBox="150 98.5  12 12" xmlns="http://www.w3.org/2000/svg">
  <path d="M 150.5 99  L 161.5 99  L 161.5 110  L 150.5 110  L 150.5 99  Z " fill-rule="nonzero" fill="#ffffff" stroke="none" />
  <path d="M 150.5 99  L 161.5 99  L 161.5 110  L 150.5 110  L 150.5 99  Z " stroke-width="1" stroke="#797979" fill="none" />
  <path d="M 152.571428571429 104.5  L 155.142857142857 107.071428571429  " stroke-width="2.57142857142857" stroke="#797979" fill="none" />
  <path d="M 155.142857142857 107.071428571429  L 159.428571428571 101.071428571429  " stroke-width="2.57142857142857" stroke="#797979" fill="none" />
</svg>