﻿<?xml version="1.0" encoding="utf-8"?>
<svg version="1.1" xmlns:xlink="http://www.w3.org/1999/xlink" width="44px" height="22px" xmlns="http://www.w3.org/2000/svg">
  <g transform="matrix(1 0 0 1 -778 -110 )">
    <path d="M 32.6685267857143 17.2352430555556  C 35.9505208333333 15.6883680555556  38.6800595238095 13.6099537037037  40.8571428571429 11  C 38.3690476190476 7.99537037037037  35.2507440476191 5.74826388888889  31.5022321428571 4.25868055555555  C 32.5007440476191 5.58275462962963  33 7.0150462962963  33 8.55555555555555  C 33 10.9108796296296  31.9237351190476 12.9256365740741  29.7712053571429 14.5998263888889  C 27.6186755952381 16.2740162037037  25.0282738095238 17.1111111111111  22 17.1111111111111  C 18.9717261904762 17.1111111111111  16.3813244047619 16.2740162037037  14.2287946428571 14.5998263888889  C 12.0762648809524 12.9256365740741  11 10.9108796296296  11 8.55555555555555  C 11 7.0150462962963  11.499255952381 5.58275462962963  12.4977678571429 4.25868055555555  C 8.74925595238095 5.74826388888889  5.63095238095238 7.99537037037037  3.14285714285714 11  C 5.31994047619048 13.6099537037037  8.04947916666667 15.6883680555556  11.3314732142857 17.2352430555556  C 14.6134672619048 18.7821180555556  18.1696428571429 19.5555555555556  22 19.5555555555556  C 25.8303571428571 19.5555555555556  29.3865327380952 18.7821180555556  32.6685267857143 17.2352430555556  Z M 22.8348214285714 4.31597222222222  C 23.0639880952381 4.13773148148148  23.1785714285714 3.9212962962963  23.1785714285714 3.66666666666667  C 23.1785714285714 3.41203703703704  23.0639880952381 3.19560185185185  22.8348214285714 3.01736111111111  C 22.6056547619048 2.83912037037037  22.327380952381 2.75  22 2.75  C 19.953869047619 2.75  18.1982886904762 3.3197337962963  16.7332589285714 4.45920138888889  C 15.2682291666667 5.59866898148148  14.5357142857143 6.96412037037037  14.5357142857143 8.55555555555555  C 14.5357142857143 8.81018518518518  14.6502976190476 9.02662037037037  14.8794642857143 9.20486111111111  C 15.108630952381 9.38310185185185  15.3869047619048 9.47222222222222  15.7142857142857 9.47222222222222  C 16.0416666666667 9.47222222222222  16.3199404761905 9.38310185185185  16.5491071428571 9.20486111111111  C 16.7782738095238 9.02662037037037  16.8928571428571 8.81018518518518  16.8928571428571 8.55555555555555  C 16.8928571428571 7.46064814814815  17.3921130952381 6.52488425925926  18.390625 5.74826388888889  C 19.3891369047619 4.97164351851852  20.5922619047619 4.58333333333333  22 4.58333333333333  C 22.327380952381 4.58333333333333  22.6056547619048 4.49421296296296  22.8348214285714 4.31597222222222  Z M 43.5089285714286 9.68229166666667  C 43.8363095238095 10.1278935185185  44 10.5671296296296  44 11  C 44 11.4328703703704  43.8363095238095 11.8721064814815  43.5089285714286 12.3177083333333  C 41.2172619047619 15.2459490740741  38.1357886904762 17.591724537037  34.2645089285714 19.3550347222222  C 30.3932291666667 21.1183449074074  26.3050595238095 22  22 22  C 17.6949404761905 22  13.6067708333333 21.115162037037  9.73549107142857 19.3454861111111  C 5.86421130952381 17.5758101851852  2.7827380952381 15.2332175925926  0.491071428571429 12.3177083333333  C 0.163690476190476 11.8721064814815  0 11.4328703703704  0 11  C 0 10.5671296296296  0.163690476190476 10.1278935185185  0.491071428571429 9.68229166666667  C 2.7827380952381 6.76678240740741  5.86421130952381 4.42418981481481  9.73549107142857 2.65451388888889  C 13.6067708333333 0.884837962962961  17.6949404761905 0  22 0  C 26.3050595238095 0  30.3932291666667 0.884837962962961  34.2645089285714 2.65451388888889  C 38.1357886904762 4.42418981481481  41.2172619047619 6.76678240740741  43.5089285714286 9.68229166666667  Z " fill-rule="nonzero" fill="#000000" stroke="none" transform="matrix(1 0 0 1 778 110 )" />
  </g>
</svg>