﻿<?xml version="1.0" encoding="utf-8"?>
<svg version="1.1" xmlns:xlink="http://www.w3.org/1999/xlink" width="31px" height="23px" xmlns="http://www.w3.org/2000/svg">
  <g transform="matrix(1 0 0 1 -784 -34 )">
    <path d="M 30.2693602693603 17.1919191919192  C 30.7564534231201 17.5533108866442  31 17.9921436588103  31 18.5084175084175  C 31 19.0246913580247  30.7564534231201 19.4635241301908  30.2693602693603 19.8249158249158  L 26.7205387205387 22.4579124579125  C 26.2334455667789 22.8193041526375  25.641975308642 23  24.9461279461279 23  C 24.2502805836139 23  23.658810325477 22.8193041526375  23.1717171717172 22.4579124579125  L 15.5 16.7659932659933  L 7.82828282828283 22.4579124579125  C 7.34118967452301 22.8193041526375  6.74971941638608 23  6.05387205387205 23  C 5.35802469135803 23  4.7665544332211 22.8193041526375  4.27946127946128 22.4579124579125  L 0.730639730639731 19.8249158249158  C 0.24354657687991 19.4635241301908  0 19.0246913580247  0 18.5084175084175  C 0 17.9921436588103  0.24354657687991 17.5533108866442  0.730639730639731 17.1919191919192  L 8.4023569023569 11.5  L 0.730639730639731 5.80808080808081  C 0.24354657687991 5.44668911335578  0 5.00785634118968  0 4.49158249158249  C 0 3.97530864197531  0.24354657687991 3.5364758698092  0.730639730639731 3.17508417508418  L 4.27946127946128 0.542087542087542  C 4.7665544332211 0.180695847362513  5.35802469135803 0  6.05387205387205 0  C 6.74971941638608 0  7.34118967452301 0.180695847362513  7.82828282828283 0.542087542087542  L 15.5 6.23400673400674  L 23.1717171717172 0.542087542087542  C 23.658810325477 0.180695847362513  24.2502805836139 0  24.9461279461279 0  C 25.641975308642 0  26.2334455667789 0.180695847362513  26.7205387205387 0.542087542087542  L 30.2693602693603 3.17508417508418  C 30.7564534231201 3.5364758698092  31 3.97530864197531  31 4.49158249158249  C 31 5.00785634118968  30.7564534231201 5.44668911335578  30.2693602693603 5.80808080808081  L 22.5976430976431 11.5  L 30.2693602693603 17.1919191919192  Z " fill-rule="nonzero" fill="#000000" stroke="none" transform="matrix(1 0 0 1 784 34 )" />
  </g>
</svg>