﻿<?xml version="1.0" encoding="utf-8"?>
<svg version="1.1" xmlns:xlink="http://www.w3.org/1999/xlink" width="12px" height="12px" viewBox="820 40.5  12 12" xmlns="http://www.w3.org/2000/svg">
  <path d="M 820.5 41  L 831.5 41  L 831.5 52  L 820.5 52  L 820.5 41  Z " fill-rule="nonzero" fill="#ffffff" stroke="none" />
  <path d="M 820.5 41  L 831.5 41  L 831.5 52  L 820.5 52  L 820.5 41  Z " stroke-width="1" stroke="#797979" fill="none" />
  <path d="M 822.571428571429 46.5  L 825.142857142857 49.0714285714286  " stroke-width="2.57142857142857" stroke="#797979" fill="none" />
  <path d="M 825.142857142857 49.0714285714286  L 829.428571428571 43.0714285714286  " stroke-width="2.57142857142857" stroke="#797979" fill="none" />
</svg>