﻿<?xml version="1.0" encoding="utf-8"?>
<svg version="1.1" xmlns:xlink="http://www.w3.org/1999/xlink" width="12px" height="12px" viewBox="407 371.5  12 12" xmlns="http://www.w3.org/2000/svg">
  <path d="M 407.5 372  L 418.5 372  L 418.5 383  L 407.5 383  L 407.5 372  Z " fill-rule="nonzero" fill="#ffffff" stroke="none" />
  <path d="M 407.5 372  L 418.5 372  L 418.5 383  L 407.5 383  L 407.5 372  Z " stroke-width="1" stroke="#797979" fill="none" />
  <path d="M 409.571428571429 377.5  L 412.142857142857 380.071428571429  " stroke-width="2.57142857142857" stroke="#797979" fill="none" />
  <path d="M 412.142857142857 380.071428571429  L 416.428571428571 374.071428571429  " stroke-width="2.57142857142857" stroke="#797979" fill="none" />
</svg>