﻿<?xml version="1.0" encoding="utf-8"?>
<svg version="1.1" xmlns:xlink="http://www.w3.org/1999/xlink" width="12px" height="12px" viewBox="636 73.5  12 12" xmlns="http://www.w3.org/2000/svg">
  <path d="M 636.5 74  L 647.5 74  L 647.5 85  L 636.5 85  L 636.5 74  Z " fill-rule="nonzero" fill="#f2f2f2" stroke="none" />
  <path d="M 636.5 74  L 647.5 74  L 647.5 85  L 636.5 85  L 636.5 74  Z " stroke-width="1" stroke="#797979" fill="none" />
  <path d="M 638.571428571429 79.5  L 641.142857142857 82.0714285714286  " stroke-width="2.57142857142857" stroke="#797979" fill="none" />
  <path d="M 641.142857142857 82.0714285714286  L 645.428571428571 76.0714285714286  " stroke-width="2.57142857142857" stroke="#797979" fill="none" />
</svg>