﻿<?xml version="1.0" encoding="utf-8"?>
<svg version="1.1" xmlns:xlink="http://www.w3.org/1999/xlink" width="12px" height="12px" viewBox="283 371.5  12 12" xmlns="http://www.w3.org/2000/svg">
  <path d="M 283.5 372  L 294.5 372  L 294.5 383  L 283.5 383  L 283.5 372  Z " fill-rule="nonzero" fill="#ffffff" stroke="none" />
  <path d="M 283.5 372  L 294.5 372  L 294.5 383  L 283.5 383  L 283.5 372  Z " stroke-width="1" stroke="#797979" fill="none" />
</svg>