﻿<?xml version="1.0" encoding="utf-8"?>
<svg version="1.1" xmlns:xlink="http://www.w3.org/1999/xlink" width="12px" height="12px" viewBox="370 292.5  12 12" xmlns="http://www.w3.org/2000/svg">
  <path d="M 370.5 293  L 381.5 293  L 381.5 304  L 370.5 304  L 370.5 293  Z " fill-rule="nonzero" fill="#ffffff" stroke="none" />
  <path d="M 370.5 293  L 381.5 293  L 381.5 304  L 370.5 304  L 370.5 293  Z " stroke-width="1" stroke="#797979" fill="none" />
  <path d="M 372.571428571429 298.5  L 375.142857142857 301.071428571429  " stroke-width="2.57142857142857" stroke="#797979" fill="none" />
  <path d="M 375.142857142857 301.071428571429  L 379.428571428571 295.071428571429  " stroke-width="2.57142857142857" stroke="#797979" fill="none" />
</svg>