﻿<?xml version="1.0" encoding="utf-8"?>
<svg version="1.1" xmlns:xlink="http://www.w3.org/1999/xlink" width="2px" height="312px" xmlns="http://www.w3.org/2000/svg">
  <g transform="matrix(1 0 0 1 -362 -758 )">
    <path d="M 362.5 758  L 362.5 1069  " stroke-width="1" stroke="#797979" fill="none" />
  </g>
</svg>