﻿<?xml version="1.0" encoding="utf-8"?>
<svg version="1.1" xmlns:xlink="http://www.w3.org/1999/xlink" width="2px" height="7px" xmlns="http://www.w3.org/2000/svg">
  <g transform="matrix(1 0 0 1 -500 -895 )">
    <path d="M 500.5 895  L 500.5 901  " stroke-width="1" stroke="#797979" fill="none" />
  </g>
</svg>