﻿<?xml version="1.0" encoding="utf-8"?>
<svg version="1.1" xmlns:xlink="http://www.w3.org/1999/xlink" width="12px" height="12px" viewBox="1005 165.5  12 12" xmlns="http://www.w3.org/2000/svg">
  <path d="M 1005.5 166  L 1016.5 166  L 1016.5 177  L 1005.5 177  L 1005.5 166  Z " fill-rule="nonzero" fill="#ffffff" stroke="none" />
  <path d="M 1005.5 166  L 1016.5 166  L 1016.5 177  L 1005.5 177  L 1005.5 166  Z " stroke-width="1" stroke="#797979" fill="none" />
</svg>