﻿<?xml version="1.0" encoding="utf-8"?>
<svg version="1.1" xmlns:xlink="http://www.w3.org/1999/xlink" width="12px" height="12px" viewBox="804 21.5  12 12" xmlns="http://www.w3.org/2000/svg">
  <path d="M 804.5 22  L 815.5 22  L 815.5 33  L 804.5 33  L 804.5 22  Z " fill-rule="nonzero" fill="#ffffff" stroke="none" />
  <path d="M 804.5 22  L 815.5 22  L 815.5 33  L 804.5 33  L 804.5 22  Z " stroke-width="1" stroke="#797979" fill="none" />
  <path d="M 806.571428571429 27.5  L 809.142857142857 30.0714285714286  " stroke-width="2.57142857142857" stroke="#797979" fill="none" />
  <path d="M 809.142857142857 30.0714285714286  L 813.428571428571 24.0714285714286  " stroke-width="2.57142857142857" stroke="#797979" fill="none" />
</svg>