﻿<?xml version="1.0" encoding="utf-8"?>
<svg version="1.1" xmlns:xlink="http://www.w3.org/1999/xlink" width="12px" height="12px" viewBox="574 78.5  12 12" xmlns="http://www.w3.org/2000/svg">
  <path d="M 574.5 79  L 585.5 79  L 585.5 90  L 574.5 90  L 574.5 79  Z " fill-rule="nonzero" fill="#ffffff" stroke="none" />
  <path d="M 574.5 79  L 585.5 79  L 585.5 90  L 574.5 90  L 574.5 79  Z " stroke-width="1" stroke="#797979" fill="none" />
</svg>