﻿<?xml version="1.0" encoding="utf-8"?>
<svg version="1.1" xmlns:xlink="http://www.w3.org/1999/xlink" width="110px" height="28px" xmlns="http://www.w3.org/2000/svg">
  <g transform="matrix(1 0 0 1 -877 -312 )">
    <path d="M 0 22.6153846153846  L 0 5.38461538461539  C 0 2.36923076923076  1.72857142857146 0  3.92857142857143 0  L 40.5952380952382 0  L 51.0714285714286 0  L 106.071428571429 0  C 108.271428571429 0  110 2.36923076923076  110 5.38461538461539  L 110 22.6153846153846  C 110 25.6307692307692  108.271428571429 28  106.071428571429 28  L 56.3095238095239 28  L 3.92857142857143 28  C 1.72857142857146 28  0 25.6307692307692  0 22.6153846153846  Z " fill-rule="nonzero" fill="#169bd5" stroke="none" transform="matrix(1 0 0 1 877 312 )" />
  </g>
</svg>