﻿<?xml version="1.0" encoding="utf-8"?>
<svg version="1.1" xmlns:xlink="http://www.w3.org/1999/xlink" width="12px" height="12px" viewBox="751 490.5  12 12" xmlns="http://www.w3.org/2000/svg">
  <path d="M 751.5 493.5  A 2.5 2.5 0 0 1 754 491 L 760 491  A 2.5 2.5 0 0 1 762.5 493.5 L 762.5 499.5  A 2.5 2.5 0 0 1 760 502 L 754 502  A 2.5 2.5 0 0 1 751.5 499.5 L 751.5 493.5  Z " fill-rule="nonzero" fill="#ffffff" stroke="none" />
  <path d="M 751.5 493.5  A 2.5 2.5 0 0 1 754 491 L 760 491  A 2.5 2.5 0 0 1 762.5 493.5 L 762.5 499.5  A 2.5 2.5 0 0 1 760 502 L 754 502  A 2.5 2.5 0 0 1 751.5 499.5 L 751.5 493.5  Z " stroke-width="1" stroke="#797979" fill="none" />
</svg>