﻿<?xml version="1.0" encoding="utf-8"?>
<svg version="1.1" xmlns:xlink="http://www.w3.org/1999/xlink" width="12px" height="12px" viewBox="541 554.5  12 12" xmlns="http://www.w3.org/2000/svg">
  <path d="M 541.5 557.5  A 2.5 2.5 0 0 1 544 555 L 550 555  A 2.5 2.5 0 0 1 552.5 557.5 L 552.5 563.5  A 2.5 2.5 0 0 1 550 566 L 544 566  A 2.5 2.5 0 0 1 541.5 563.5 L 541.5 557.5  Z " fill-rule="nonzero" fill="#ffffff" stroke="none" />
  <path d="M 541.5 557.5  A 2.5 2.5 0 0 1 544 555 L 550 555  A 2.5 2.5 0 0 1 552.5 557.5 L 552.5 563.5  A 2.5 2.5 0 0 1 550 566 L 544 566  A 2.5 2.5 0 0 1 541.5 563.5 L 541.5 557.5  Z " stroke-width="1" stroke="#797979" fill="none" />
  <path d="M 543.571428571429 560.5  L 546.142857142857 563.071428571429  " stroke-width="2.57142857142857" stroke="#797979" fill="none" />
  <path d="M 546.142857142857 563.071428571429  L 550.428571428571 557.071428571429  " stroke-width="2.57142857142857" stroke="#797979" fill="none" />
</svg>