﻿<?xml version="1.0" encoding="utf-8"?>
<svg version="1.1" xmlns:xlink="http://www.w3.org/1999/xlink" width="12px" height="12px" viewBox="657 589.5  12 12" xmlns="http://www.w3.org/2000/svg">
  <path d="M 657.5 592.5  A 2.5 2.5 0 0 1 660 590 L 666 590  A 2.5 2.5 0 0 1 668.5 592.5 L 668.5 598.5  A 2.5 2.5 0 0 1 666 601 L 660 601  A 2.5 2.5 0 0 1 657.5 598.5 L 657.5 592.5  Z " fill-rule="nonzero" fill="#f0f0f0" stroke="none" />
  <path d="M 657.5 592.5  A 2.5 2.5 0 0 1 660 590 L 666 590  A 2.5 2.5 0 0 1 668.5 592.5 L 668.5 598.5  A 2.5 2.5 0 0 1 666 601 L 660 601  A 2.5 2.5 0 0 1 657.5 598.5 L 657.5 592.5  Z " stroke-width="1" stroke="#797979" fill="none" />
</svg>