﻿<?xml version="1.0" encoding="utf-8"?>
<svg version="1.1" xmlns:xlink="http://www.w3.org/1999/xlink" width="12px" height="12px" viewBox="32 63.5  12 12" xmlns="http://www.w3.org/2000/svg">
  <path d="M 32.5 64  L 43.5 64  L 43.5 75  L 32.5 75  L 32.5 64  Z " fill-rule="nonzero" fill="#ffffff" stroke="none" />
  <path d="M 32.5 64  L 43.5 64  L 43.5 75  L 32.5 75  L 32.5 64  Z " stroke-width="1" stroke="#797979" fill="none" />
  <path d="M 34.5714285714286 69.5  L 37.1428571428571 72.0714285714286  " stroke-width="2.57142857142857" stroke="#797979" fill="none" />
  <path d="M 37.1428571428571 72.0714285714286  L 41.4285714285714 66.0714285714286  " stroke-width="2.57142857142857" stroke="#797979" fill="none" />
</svg>