﻿<?xml version="1.0" encoding="utf-8"?>
<svg version="1.1" xmlns:xlink="http://www.w3.org/1999/xlink" width="12px" height="12px" viewBox="35 2370.5  12 12" xmlns="http://www.w3.org/2000/svg">
  <path d="M 35.5 2371  L 46.5 2371  L 46.5 2382  L 35.5 2382  L 35.5 2371  Z " fill-rule="nonzero" fill="#ffffff" stroke="none" />
  <path d="M 35.5 2371  L 46.5 2371  L 46.5 2382  L 35.5 2382  L 35.5 2371  Z " stroke-width="1" stroke="#797979" fill="none" />
  <path d="M 37.5714285714286 2376.5  L 40.1428571428571 2379.07142857143  " stroke-width="2.57142857142857" stroke="#797979" fill="none" />
  <path d="M 40.1428571428571 2379.07142857143  L 44.4285714285714 2373.07142857143  " stroke-width="2.57142857142857" stroke="#797979" fill="none" />
</svg>