﻿<?xml version="1.0" encoding="utf-8"?>
<svg version="1.1" xmlns:xlink="http://www.w3.org/1999/xlink" width="12px" height="12px" viewBox="35 1974.5  12 12" xmlns="http://www.w3.org/2000/svg">
  <path d="M 35.5 1975  L 46.5 1975  L 46.5 1986  L 35.5 1986  L 35.5 1975  Z " fill-rule="nonzero" fill="#ffffff" stroke="none" />
  <path d="M 35.5 1975  L 46.5 1975  L 46.5 1986  L 35.5 1986  L 35.5 1975  Z " stroke-width="1" stroke="#797979" fill="none" />
</svg>