﻿<?xml version="1.0" encoding="utf-8"?>
<svg version="1.1" xmlns:xlink="http://www.w3.org/1999/xlink" width="12px" height="12px" viewBox="35 1511.5  12 12" xmlns="http://www.w3.org/2000/svg">
  <path d="M 35.5 1512  L 46.5 1512  L 46.5 1523  L 35.5 1523  L 35.5 1512  Z " fill-rule="nonzero" fill="#ffffff" stroke="none" />
  <path d="M 35.5 1512  L 46.5 1512  L 46.5 1523  L 35.5 1523  L 35.5 1512  Z " stroke-width="1" stroke="#797979" fill="none" />
  <path d="M 37.5714285714286 1517.5  L 40.1428571428571 1520.07142857143  " stroke-width="2.57142857142857" stroke="#797979" fill="none" />
  <path d="M 40.1428571428571 1520.07142857143  L 44.4285714285714 1514.07142857143  " stroke-width="2.57142857142857" stroke="#797979" fill="none" />
</svg>