﻿<?xml version="1.0" encoding="utf-8"?>
<svg version="1.1" xmlns:xlink="http://www.w3.org/1999/xlink" width="12px" height="12px" viewBox="45 2584.5  12 12" xmlns="http://www.w3.org/2000/svg">
  <path d="M 45.5 2585  L 56.5 2585  L 56.5 2596  L 45.5 2596  L 45.5 2585  Z " fill-rule="nonzero" fill="#ffffff" stroke="none" />
  <path d="M 45.5 2585  L 56.5 2585  L 56.5 2596  L 45.5 2596  L 45.5 2585  Z " stroke-width="1" stroke="#797979" fill="none" />
  <path d="M 47.5714285714286 2590.5  L 50.1428571428571 2593.07142857143  " stroke-width="2.57142857142857" stroke="#797979" fill="none" />
  <path d="M 50.1428571428571 2593.07142857143  L 54.4285714285714 2587.07142857143  " stroke-width="2.57142857142857" stroke="#797979" fill="none" />
</svg>