﻿<?xml version="1.0" encoding="utf-8"?>
<svg version="1.1" xmlns:xlink="http://www.w3.org/1999/xlink" width="12px" height="12px" viewBox="41 740.5  12 12" xmlns="http://www.w3.org/2000/svg">
  <path d="M 41.5 741  L 52.5 741  L 52.5 752  L 41.5 752  L 41.5 741  Z " fill-rule="nonzero" fill="#ffffff" stroke="none" />
  <path d="M 41.5 741  L 52.5 741  L 52.5 752  L 41.5 752  L 41.5 741  Z " stroke-width="1" stroke="#797979" fill="none" />
  <path d="M 43.5714285714286 746.5  L 46.1428571428571 749.071428571429  " stroke-width="2.57142857142857" stroke="#797979" fill="none" />
  <path d="M 46.1428571428571 749.071428571429  L 50.4285714285714 743.071428571429  " stroke-width="2.57142857142857" stroke="#797979" fill="none" />
</svg>