﻿<?xml version="1.0" encoding="utf-8"?>
<svg version="1.1" xmlns:xlink="http://www.w3.org/1999/xlink" width="12px" height="12px" viewBox="615 403.5  12 12" xmlns="http://www.w3.org/2000/svg">
  <path d="M 615.5 404  L 626.5 404  L 626.5 415  L 615.5 415  L 615.5 404  Z " fill-rule="nonzero" fill="#ffffff" stroke="none" />
  <path d="M 615.5 404  L 626.5 404  L 626.5 415  L 615.5 415  L 615.5 404  Z " stroke-width="1" stroke="#797979" fill="none" />
</svg>