﻿<?xml version="1.0" encoding="utf-8"?>
<svg version="1.1" xmlns:xlink="http://www.w3.org/1999/xlink" width="12px" height="12px" viewBox="615 253.5  12 12" xmlns="http://www.w3.org/2000/svg">
  <path d="M 615.5 254  L 626.5 254  L 626.5 265  L 615.5 265  L 615.5 254  Z " fill-rule="nonzero" fill="#ffffff" stroke="none" />
  <path d="M 615.5 254  L 626.5 254  L 626.5 265  L 615.5 265  L 615.5 254  Z " stroke-width="1" stroke="#797979" fill="none" />
  <path d="M 617.571428571429 259.5  L 620.142857142857 262.071428571429  " stroke-width="2.57142857142857" stroke="#797979" fill="none" />
  <path d="M 620.142857142857 262.071428571429  L 624.428571428571 256.071428571429  " stroke-width="2.57142857142857" stroke="#797979" fill="none" />
</svg>