﻿<?xml version="1.0" encoding="utf-8"?>
<svg version="1.1" xmlns:xlink="http://www.w3.org/1999/xlink" width="12px" height="12px" viewBox="543 871.5  12 12" xmlns="http://www.w3.org/2000/svg">
  <path d="M 543.5 872  L 554.5 872  L 554.5 883  L 543.5 883  L 543.5 872  Z " fill-rule="nonzero" fill="#ffffff" stroke="none" />
  <path d="M 543.5 872  L 554.5 872  L 554.5 883  L 543.5 883  L 543.5 872  Z " stroke-width="1" stroke="#797979" fill="none" />
  <path d="M 545.571428571429 877.5  L 548.142857142857 880.071428571429  " stroke-width="2.57142857142857" stroke="#797979" fill="none" />
  <path d="M 548.142857142857 880.071428571429  L 552.428571428571 874.071428571429  " stroke-width="2.57142857142857" stroke="#797979" fill="none" />
</svg>