﻿<?xml version="1.0" encoding="utf-8"?>
<svg version="1.1" xmlns:xlink="http://www.w3.org/1999/xlink" width="12px" height="12px" viewBox="232 867.5  12 12" xmlns="http://www.w3.org/2000/svg">
  <path d="M 232.5 868  L 243.5 868  L 243.5 879  L 232.5 879  L 232.5 868  Z " fill-rule="nonzero" fill="#ffffff" stroke="none" />
  <path d="M 232.5 868  L 243.5 868  L 243.5 879  L 232.5 879  L 232.5 868  Z " stroke-width="1" stroke="#797979" fill="none" />
  <path d="M 234.571428571429 873.5  L 237.142857142857 876.071428571429  " stroke-width="2.57142857142857" stroke="#797979" fill="none" />
  <path d="M 237.142857142857 876.071428571429  L 241.428571428571 870.071428571429  " stroke-width="2.57142857142857" stroke="#797979" fill="none" />
</svg>