﻿<?xml version="1.0" encoding="utf-8"?>
<svg version="1.1" xmlns:xlink="http://www.w3.org/1999/xlink" width="12px" height="12px" viewBox="304 821.5  12 12" xmlns="http://www.w3.org/2000/svg">
  <path d="M 304.5 822  L 315.5 822  L 315.5 833  L 304.5 833  L 304.5 822  Z " fill-rule="nonzero" fill="#ffffff" stroke="none" />
  <path d="M 304.5 822  L 315.5 822  L 315.5 833  L 304.5 833  L 304.5 822  Z " stroke-width="1" stroke="#797979" fill="none" />
  <path d="M 306.571428571429 827.5  L 309.142857142857 830.071428571429  " stroke-width="2.57142857142857" stroke="#797979" fill="none" />
  <path d="M 309.142857142857 830.071428571429  L 313.428571428571 824.071428571429  " stroke-width="2.57142857142857" stroke="#797979" fill="none" />
</svg>