﻿<?xml version="1.0" encoding="utf-8"?>
<svg version="1.1" xmlns:xlink="http://www.w3.org/1999/xlink" width="12px" height="12px" viewBox="391 197.5  12 12" xmlns="http://www.w3.org/2000/svg">
  <path d="M 391.5 198  L 402.5 198  L 402.5 209  L 391.5 209  L 391.5 198  Z " fill-rule="nonzero" fill="#ffffff" stroke="none" />
  <path d="M 391.5 198  L 402.5 198  L 402.5 209  L 391.5 209  L 391.5 198  Z " stroke-width="1" stroke="#797979" fill="none" />
  <path d="M 393.571428571429 203.5  L 396.142857142857 206.071428571429  " stroke-width="2.57142857142857" stroke="#797979" fill="none" />
  <path d="M 396.142857142857 206.071428571429  L 400.428571428571 200.071428571429  " stroke-width="2.57142857142857" stroke="#797979" fill="none" />
</svg>