﻿<?xml version="1.0" encoding="utf-8"?>
<svg version="1.1" xmlns:xlink="http://www.w3.org/1999/xlink" width="12px" height="12px" viewBox="212 56.5  12 12" xmlns="http://www.w3.org/2000/svg">
  <path d="M 212.5 57  L 223.5 57  L 223.5 68  L 212.5 68  L 212.5 57  Z " fill-rule="nonzero" fill="#ffffff" stroke="none" />
  <path d="M 212.5 57  L 223.5 57  L 223.5 68  L 212.5 68  L 212.5 57  Z " stroke-width="1" stroke="#797979" fill="none" />
  <path d="M 214.571428571429 62.5  L 217.142857142857 65.0714285714286  " stroke-width="2.57142857142857" stroke="#797979" fill="none" />
  <path d="M 217.142857142857 65.0714285714286  L 221.428571428571 59.0714285714286  " stroke-width="2.57142857142857" stroke="#797979" fill="none" />
</svg>