﻿<?xml version="1.0" encoding="utf-8"?>
<svg version="1.1" xmlns:xlink="http://www.w3.org/1999/xlink" width="12px" height="12px" viewBox="812 149.5  12 12" xmlns="http://www.w3.org/2000/svg">
  <path d="M 812.5 150  L 823.5 150  L 823.5 161  L 812.5 161  L 812.5 150  Z " fill-rule="nonzero" fill="#ffffff" stroke="none" />
  <path d="M 812.5 150  L 823.5 150  L 823.5 161  L 812.5 161  L 812.5 150  Z " stroke-width="1" stroke="#797979" fill="none" />
  <path d="M 814.571428571429 155.5  L 817.142857142857 158.071428571429  " stroke-width="2.57142857142857" stroke="#797979" fill="none" />
  <path d="M 817.142857142857 158.071428571429  L 821.428571428571 152.071428571429  " stroke-width="2.57142857142857" stroke="#797979" fill="none" />
</svg>