﻿<?xml version="1.0" encoding="utf-8"?>
<svg version="1.1" xmlns:xlink="http://www.w3.org/1999/xlink" width="12px" height="12px" viewBox="229 95.5  12 12" xmlns="http://www.w3.org/2000/svg">
  <path d="M 229.5 96  L 240.5 96  L 240.5 107  L 229.5 107  L 229.5 96  Z " fill-rule="nonzero" fill="#ffffff" stroke="none" />
  <path d="M 229.5 96  L 240.5 96  L 240.5 107  L 229.5 107  L 229.5 96  Z " stroke-width="1" stroke="#797979" fill="none" />
  <path d="M 231.571428571429 101.5  L 234.142857142857 104.071428571429  " stroke-width="2.57142857142857" stroke="#797979" fill="none" />
  <path d="M 234.142857142857 104.071428571429  L 238.428571428571 98.0714285714286  " stroke-width="2.57142857142857" stroke="#797979" fill="none" />
</svg>