﻿<?xml version="1.0" encoding="utf-8"?>
<svg version="1.1" xmlns:xlink="http://www.w3.org/1999/xlink" width="12px" height="12px" viewBox="333 95.5  12 12" xmlns="http://www.w3.org/2000/svg">
  <path d="M 333.5 96  L 344.5 96  L 344.5 107  L 333.5 107  L 333.5 96  Z " fill-rule="nonzero" fill="#ffffff" stroke="none" />
  <path d="M 333.5 96  L 344.5 96  L 344.5 107  L 333.5 107  L 333.5 96  Z " stroke-width="1" stroke="#797979" fill="none" />
  <path d="M 335.571428571429 101.5  L 338.142857142857 104.071428571429  " stroke-width="2.57142857142857" stroke="#797979" fill="none" />
  <path d="M 338.142857142857 104.071428571429  L 342.428571428571 98.0714285714286  " stroke-width="2.57142857142857" stroke="#797979" fill="none" />
</svg>