﻿<?xml version="1.0" encoding="utf-8"?>
<svg version="1.1" xmlns:xlink="http://www.w3.org/1999/xlink" width="12px" height="12px" viewBox="259 60.5  12 12" xmlns="http://www.w3.org/2000/svg">
  <path d="M 259.5 61  L 270.5 61  L 270.5 72  L 259.5 72  L 259.5 61  Z " fill-rule="nonzero" fill="#ffffff" stroke="none" />
  <path d="M 259.5 61  L 270.5 61  L 270.5 72  L 259.5 72  L 259.5 61  Z " stroke-width="1" stroke="#797979" fill="none" />
  <path d="M 261.571428571429 66.5  L 264.142857142857 69.0714285714286  " stroke-width="2.57142857142857" stroke="#797979" fill="none" />
  <path d="M 264.142857142857 69.0714285714286  L 268.428571428571 63.0714285714286  " stroke-width="2.57142857142857" stroke="#797979" fill="none" />
</svg>