﻿<?xml version="1.0" encoding="utf-8"?>
<svg version="1.1" xmlns:xlink="http://www.w3.org/1999/xlink" width="12px" height="12px" viewBox="453 60.5  12 12" xmlns="http://www.w3.org/2000/svg">
  <path d="M 453.5 61  L 464.5 61  L 464.5 72  L 453.5 72  L 453.5 61  Z " fill-rule="nonzero" fill="#ffffff" stroke="none" />
  <path d="M 453.5 61  L 464.5 61  L 464.5 72  L 453.5 72  L 453.5 61  Z " stroke-width="1" stroke="#797979" fill="none" />
  <path d="M 455.571428571429 66.5  L 458.142857142857 69.0714285714286  " stroke-width="2.57142857142857" stroke="#797979" fill="none" />
  <path d="M 458.142857142857 69.0714285714286  L 462.428571428571 63.0714285714286  " stroke-width="2.57142857142857" stroke="#797979" fill="none" />
</svg>