﻿<?xml version="1.0" encoding="utf-8"?>
<svg version="1.1" xmlns:xlink="http://www.w3.org/1999/xlink" width="12px" height="12px" viewBox="257 139.5  12 12" xmlns="http://www.w3.org/2000/svg">
  <path d="M 257.5 140  L 268.5 140  L 268.5 151  L 257.5 151  L 257.5 140  Z " fill-rule="nonzero" fill="#ffffff" stroke="none" />
  <path d="M 257.5 140  L 268.5 140  L 268.5 151  L 257.5 151  L 257.5 140  Z " stroke-width="1" stroke="#797979" fill="none" />
  <path d="M 259.571428571429 145.5  L 262.142857142857 148.071428571429  " stroke-width="2.57142857142857" stroke="#797979" fill="none" />
  <path d="M 262.142857142857 148.071428571429  L 266.428571428571 142.071428571429  " stroke-width="2.57142857142857" stroke="#797979" fill="none" />
</svg>