﻿<?xml version="1.0" encoding="utf-8"?>
<svg version="1.1" xmlns:xlink="http://www.w3.org/1999/xlink" width="12px" height="12px" viewBox="496 106  12 12" xmlns="http://www.w3.org/2000/svg">
  <path d="M 496.5 106.5  L 507.5 106.5  L 507.5 117.5  L 496.5 117.5  L 496.5 106.5  Z " fill-rule="nonzero" fill="#ffffff" stroke="none" />
  <path d="M 496.5 106.5  L 507.5 106.5  L 507.5 117.5  L 496.5 117.5  L 496.5 106.5  Z " stroke-width="1" stroke="#797979" fill="none" />
  <path d="M 498.571428571429 112  L 501.142857142857 114.571428571429  " stroke-width="2.57142857142857" stroke="#797979" fill="none" />
  <path d="M 501.142857142857 114.571428571429  L 505.428571428571 108.571428571429  " stroke-width="2.57142857142857" stroke="#797979" fill="none" />
</svg>