﻿<?xml version="1.0" encoding="utf-8"?>
<svg version="1.1" xmlns:xlink="http://www.w3.org/1999/xlink" width="22px" height="25px" xmlns="http://www.w3.org/2000/svg">
  <g transform="matrix(1 0 0 1 -436 -474 )">
    <path d="M 20.971671388102 0  C 21.4079320113314 0  21.7143531633617 0.230823863636365  21.8909348441926 0.692471590909091  C 22.0675165250236 1.17779356060606  21.994806421152 1.5920928030303  21.6728045325779 1.93536931818182  L 14 10.6889204545455  L 14 23.8636363636364  C 13.9915014164306 24.3607954545455  13.7889518413598 24.709990530303  13.3838526912181 24.9112215909091  C 13.2488196411709 24.9704071969697  13.1189801699717 25  12.9943342776204 25  C 12.71388101983 25  12.4801699716714 24.8875473484849  12.2932011331445 24.6626420454545  L 8.30453257790368 20.1171875  C 8.10717658168083 19.8922821969697  8.00849858356941 19.625946969697  8.00849858356941 19.3181818181818  L 8.00849858356941 10.6889204545455  L 0.327195467422096 1.93536931818182  C 0.00519357884796978 1.5920928030303  -0.0675165250236072 1.17779356060606  0.109065155807365 0.692471590909091  C 0.285646836638338 0.230823863636365  0.592067988668555 0  1.02832861189802 0  L 20.971671388102 0  Z " fill-rule="nonzero" fill="#555555" stroke="none" transform="matrix(1 0 0 1 436 474 )" />
  </g>
</svg>