﻿<?xml version="1.0" encoding="utf-8"?>
<svg version="1.1" xmlns:xlink="http://www.w3.org/1999/xlink" width="20px" height="20px" xmlns="http://www.w3.org/2000/svg">
  <g transform="matrix(1 0 0 1 0 -159 )">
    <path d="M 11.8426501035197 9.53907815631263  C 11.9806763285024 9.67267869071476  12.0496894409938 9.82631930527722  12.0496894409938 10  C 12.0496894409938 10.1736806947228  11.9806763285024 10.3273213092852  11.8426501035197 10.4609218436874  L 2.19461697722567 19.7995991983968  C 2.05659075224293 19.9331997327989  1.89786059351277 20  1.7184265010352 20  C 1.53899240855763 20  1.38026224982747 19.9331997327989  1.24223602484472 19.7995991983968  L 0.20703933747412 18.7975951903808  C 0.0690131124913734 18.6639946559786  0 18.5103540414162  0 18.3366733466934  C 0 18.1629926519706  0.0690131124913734 18.0093520374081  0.20703933747412 17.875751503006  L 8.34368530020704 10  L 0.20703933747412 2.12424849699399  C 0.0690131124913734 1.99064796259185  0 1.83700734802939  0 1.66332665330661  C 0 1.48964595858383  0.0690131124913734 1.33600534402137  0.20703933747412 1.20240480961924  L 1.24223602484472 0.200400801603207  C 1.38026224982747 0.0668002672010681  1.53899240855763 0  1.7184265010352 0  C 1.89786059351277 0  2.05659075224293 0.0668002672010681  2.19461697722567 0.200400801603207  L 11.8426501035197 9.53907815631263  Z M 19.7929606625259 9.53907815631263  C 19.9309868875086 9.67267869071476  20 9.82631930527722  20 10  C 20 10.1736806947228  19.9309868875086 10.3273213092852  19.7929606625259 10.4609218436874  L 10.1449275362319 19.7995991983968  C 10.0069013112491 19.9331997327989  9.84817115251898 20  9.66873706004141 20  C 9.48930296756384 20  9.33057280883368 19.9331997327989  9.19254658385093 19.7995991983968  L 8.15734989648033 18.7975951903808  C 8.01932367149759 18.6639946559786  7.95031055900621 18.5103540414162  7.95031055900621 18.3366733466934  C 7.95031055900621 18.1629926519706  8.01932367149759 18.0093520374081  8.15734989648033 17.875751503006  L 16.2939958592133 10  L 8.15734989648033 2.12424849699399  C 8.01932367149759 1.99064796259185  7.95031055900621 1.83700734802939  7.95031055900621 1.66332665330661  C 7.95031055900621 1.48964595858383  8.01932367149759 1.33600534402137  8.15734989648033 1.20240480961924  L 9.19254658385093 0.200400801603207  C 9.33057280883368 0.0668002672010681  9.48930296756384 0  9.66873706004141 0  C 9.84817115251898 0  10.0069013112491 0.0668002672010681  10.1449275362319 0.200400801603207  L 19.7929606625259 9.53907815631263  Z " fill-rule="nonzero" fill="#555555" stroke="none" transform="matrix(1 0 0 1 0 159 )" />
  </g>
</svg>