﻿<?xml version="1.0" encoding="utf-8"?>
<svg version="1.1" xmlns:xlink="http://www.w3.org/1999/xlink" width="2px" height="179px" xmlns="http://www.w3.org/2000/svg">
  <g transform="matrix(1 0 0 1 -115 6 )">
    <path d="M 115.5 -6  L 115.5 172  " stroke-width="1" stroke="#797979" fill="none" />
  </g>
</svg>