﻿<?xml version="1.0" encoding="utf-8"?>
<svg version="1.1" xmlns:xlink="http://www.w3.org/1999/xlink" width="17px" height="15px" xmlns="http://www.w3.org/2000/svg">
  <g transform="matrix(1 0 0 1 -503 -975 )">
    <path d="M 16.8296593186373 6.8944099378882  C 16.9432197728791 6.99792960662526  17 7.11697722567288  17 7.25155279503106  C 17 7.38612836438923  16.9432197728791 7.50517598343685  16.8296593186373 7.60869565217391  L 8.89178356713427 14.8447204968944  C 8.77822311289245 14.9482401656315  8.64762859051436 15  8.5 15  C 8.35237140948564 15  8.22177688710755 14.9482401656315  8.10821643286573 14.8447204968944  L 0.170340681362725 7.60869565217391  C 0.0567802271209086 7.50517598343685  0 7.38612836438923  0 7.25155279503106  C 0 7.11697722567288  0.0567802271209086 6.99792960662526  0.170340681362725 6.8944099378882  L 1.02204408817635 6.11801242236025  C 1.13560454241817 6.01449275362319  1.26619906479626 5.96273291925466  1.41382765531062 5.96273291925466  C 1.56145624582498 5.96273291925466  1.69205076820307 6.01449275362319  1.80561122244489 6.11801242236025  L 8.5 12.2204968944099  L 15.1943887775551 6.11801242236025  C 15.3079492317969 6.01449275362319  15.438543754175 5.96273291925466  15.5861723446894 5.96273291925466  C 15.7338009352037 5.96273291925466  15.8643954575818 6.01449275362319  15.9779559118236 6.11801242236025  L 16.8296593186373 6.8944099378882  Z M 16.8296593186373 0.93167701863354  C 16.9432197728791 1.0351966873706  17 1.15424430641822  17 1.2888198757764  C 17 1.42339544513457  16.9432197728791 1.54244306418219  16.8296593186373 1.64596273291925  L 8.89178356713427 8.88198757763975  C 8.77822311289245 8.98550724637681  8.64762859051436 9.03726708074534  8.5 9.03726708074534  C 8.35237140948564 9.03726708074534  8.22177688710755 8.98550724637681  8.10821643286573 8.88198757763975  L 0.170340681362725 1.64596273291925  C 0.0567802271209086 1.54244306418219  0 1.42339544513457  0 1.2888198757764  C 0 1.15424430641822  0.0567802271209086 1.0351966873706  0.170340681362725 0.93167701863354  L 1.02204408817635 0.15527950310559  C 1.13560454241817 0.0517598343685288  1.26619906479626 0  1.41382765531062 0  C 1.56145624582498 0  1.69205076820307 0.0517598343685288  1.80561122244489 0.15527950310559  L 8.5 6.25776397515528  L 15.1943887775551 0.15527950310559  C 15.3079492317969 0.0517598343685288  15.438543754175 0  15.5861723446894 0  C 15.7338009352037 0  15.8643954575818 0.0517598343685288  15.9779559118236 0.15527950310559  L 16.8296593186373 0.93167701863354  Z " fill-rule="nonzero" fill="#555555" stroke="none" transform="matrix(1 0 0 1 503 975 )" />
  </g>
</svg>