﻿<?xml version="1.0" encoding="utf-8"?>
<svg version="1.1" xmlns:xlink="http://www.w3.org/1999/xlink" width="18px" height="19px" xmlns="http://www.w3.org/2000/svg">
  <g transform="matrix(1 0 0 1 -24 -1709 )">
    <path d="M 17.8196392785571 8.73291925465838  C 17.939879759519 8.86404416839199  18 9.01483781918564  18 9.18530020703934  C 18 9.35576259489303  17.939879759519 9.50655624568668  17.8196392785571 9.63768115942029  L 9.41482965931864 18.8033126293996  C 9.29458917835671 18.9344375431332  9.1563126252505 19  9 19  C 8.8436873747495 19  8.70541082164329 18.9344375431332  8.58517034068136 18.8033126293996  L 0.180360721442886 9.63768115942029  C 0.0601202404809621 9.50655624568668  0 9.35576259489303  0 9.18530020703934  C 0 9.01483781918564  0.0601202404809621 8.86404416839199  0.180360721442886 8.73291925465838  L 1.08216432865731 7.74948240165631  C 1.20240480961924 7.6183574879227  1.34068136272545 7.5527950310559  1.49699398797595 7.5527950310559  C 1.65330661322645 7.5527950310559  1.79158316633267 7.6183574879227  1.91182364729459 7.74948240165631  L 9 15.4792960662526  L 16.0881763527054 7.74948240165631  C 16.2084168336673 7.6183574879227  16.3466933867735 7.5527950310559  16.503006012024 7.5527950310559  C 16.6593186372746 7.5527950310559  16.7975951903808 7.6183574879227  16.9178356713427 7.74948240165631  L 17.8196392785571 8.73291925465838  Z M 17.8196392785571 1.18012422360248  C 17.939879759519 1.31124913733609  18 1.46204278812974  18 1.63250517598344  C 18 1.80296756383713  17.939879759519 1.95376121463078  17.8196392785571 2.08488612836439  L 9.41482965931864 11.2505175983437  C 9.29458917835671 11.3816425120773  9.1563126252505 11.4472049689441  9 11.4472049689441  C 8.8436873747495 11.4472049689441  8.70541082164329 11.3816425120773  8.58517034068136 11.2505175983437  L 0.180360721442886 2.08488612836439  C 0.0601202404809621 1.95376121463078  0 1.80296756383713  0 1.63250517598344  C 0 1.46204278812974  0.0601202404809621 1.31124913733609  0.180360721442886 1.18012422360248  L 1.08216432865731 0.196687370600414  C 1.20240480961924 0.0655624568668032  1.34068136272545 0  1.49699398797595 0  C 1.65330661322645 0  1.79158316633267 0.0655624568668032  1.91182364729459 0.196687370600414  L 9 7.92650103519669  L 16.0881763527054 0.196687370600414  C 16.2084168336673 0.0655624568668032  16.3466933867735 0  16.503006012024 0  C 16.6593186372746 0  16.7975951903808 0.0655624568668032  16.9178356713427 0.196687370600414  L 17.8196392785571 1.18012422360248  Z " fill-rule="nonzero" fill="#555555" stroke="none" transform="matrix(1 0 0 1 24 1709 )" />
  </g>
</svg>