﻿<?xml version="1.0" encoding="utf-8"?>
<svg version="1.1" xmlns:xlink="http://www.w3.org/1999/xlink" width="33px" height="28px" xmlns="http://www.w3.org/2000/svg">
  <g transform="matrix(1 0 0 1 -1216 -866 )">
    <path d="M 11.7890625 23.1692708333333  C 11.9296875 23.0598958333333  12 22.9201388888889  12 22.75  L 12 9.91666666666667  C 12 9.74652777777778  11.9296875 9.60677083333333  11.7890625 9.49739583333333  C 11.6484375 9.38802083333333  11.46875 9.33333333333333  11.25 9.33333333333333  L 9.75 9.33333333333333  C 9.53125 9.33333333333333  9.3515625 9.38802083333333  9.2109375 9.49739583333333  C 9.0703125 9.60677083333333  9 9.74652777777778  9 9.91666666666667  L 9 22.75  C 9 22.9201388888889  9.0703125 23.0598958333333  9.2109375 23.1692708333333  C 9.3515625 23.2786458333333  9.53125 23.3333333333333  9.75 23.3333333333333  L 11.25 23.3333333333333  C 11.46875 23.3333333333333  11.6484375 23.2786458333333  11.7890625 23.1692708333333  Z M 17.7890625 23.1692708333333  C 17.9296875 23.0598958333333  18 22.9201388888889  18 22.75  L 18 9.91666666666667  C 18 9.74652777777778  17.9296875 9.60677083333333  17.7890625 9.49739583333333  C 17.6484375 9.38802083333333  17.46875 9.33333333333333  17.25 9.33333333333333  L 15.75 9.33333333333333  C 15.53125 9.33333333333333  15.3515625 9.38802083333333  15.2109375 9.49739583333333  C 15.0703125 9.60677083333333  15 9.74652777777778  15 9.91666666666667  L 15 22.75  C 15 22.9201388888889  15.0703125 23.0598958333333  15.2109375 23.1692708333333  C 15.3515625 23.2786458333333  15.53125 23.3333333333333  15.75 23.3333333333333  L 17.25 23.3333333333333  C 17.46875 23.3333333333333  17.6484375 23.2786458333333  17.7890625 23.1692708333333  Z M 23.7890625 23.1692708333333  C 23.9296875 23.0598958333333  24 22.9201388888889  24 22.75  L 24 9.91666666666667  C 24 9.74652777777778  23.9296875 9.60677083333333  23.7890625 9.49739583333333  C 23.6484375 9.38802083333333  23.46875 9.33333333333333  23.25 9.33333333333333  L 21.75 9.33333333333333  C 21.53125 9.33333333333333  21.3515625 9.38802083333333  21.2109375 9.49739583333333  C 21.0703125 9.60677083333333  21 9.74652777777778  21 9.91666666666667  L 21 22.75  C 21 22.9201388888889  21.0703125 23.0598958333333  21.2109375 23.1692708333333  C 21.3515625 23.2786458333333  21.53125 23.3333333333333  21.75 23.3333333333333  L 23.25 23.3333333333333  C 23.46875 23.3333333333333  23.6484375 23.2786458333333  23.7890625 23.1692708333333  Z M 12.3984375 2.53385416666667  L 11.25 5  L 21.75 5  L 20.625 2.53385416666667  C 20.515625 2.42447916666667  20.3828125 2.35763888888889  20.2265625 2.33333333333333  L 12.796875 2.33333333333333  C 12.640625 2.35763888888889  12.5078125 2.42447916666667  12.3984375 2.53385416666667  Z M 32.7890625 4.83072916666667  C 32.9296875 4.94010416666667  33 5.07986111111111  33 5.25  L 33 6.41666666666667  C 33 6.58680555555555  32.9296875 6.7265625  32.7890625 6.8359375  C 32.6484375 6.9453125  32.46875 7  32.25 7  L 30 7  L 30 24.28125  C 30 25.2899305555556  29.6328125 26.1618923611111  28.8984375 26.8971354166667  C 28.1640625 27.6323784722222  27.28125 28  26.25 28  L 6.75 28  C 5.71875 28  4.8359375 27.64453125  4.1015625 26.93359375  C 3.3671875 26.22265625  3 25.3628472222222  3 24.3541666666667  L 3 7  L 0.75 7  C 0.53125 7  0.3515625 6.9453125  0.2109375 6.8359375  C 0.0703125 6.7265625  0 6.58680555555555  0 6.41666666666667  L 0 5.25  C 0 5.07986111111111  0.0703125 4.94010416666667  0.2109375 4.83072916666667  C 0.3515625 4.72135416666667  0.53125 4.66666666666667  0.75 4.66666666666667  L 7.9921875 4.66666666666667  L 9.6328125 1.62239583333333  C 9.8671875 1.17274305555555  10.2890625 0.789930555555553  10.8984375 0.473958333333334  C 11.5078125 0.157986111111109  12.125 0  12.75 0  L 20.25 0  C 20.875 0  21.4921875 0.157986111111109  22.1015625 0.473958333333334  C 22.7109375 0.789930555555553  23.1328125 1.17274305555555  23.3671875 1.62239583333333  L 25.0078125 4.66666666666667  L 32.25 4.66666666666667  C 32.46875 4.66666666666667  32.6484375 4.72135416666667  32.7890625 4.83072916666667  Z " fill-rule="nonzero" fill="#000000" stroke="none" transform="matrix(1 0 0 1 1216 866 )" />
  </g>
</svg>