﻿<?xml version="1.0" encoding="utf-8"?>
<svg version="1.1" xmlns:xlink="http://www.w3.org/1999/xlink" width="32px" height="28px" xmlns="http://www.w3.org/2000/svg">
  <g transform="matrix(1 0 0 1 -1004 -99 )">
    <path d="M 11.4318181818182 23.1692708333333  C 11.5681818181818 23.0598958333333  11.6363636363636 22.9201388888889  12 22.75  L 12 9.91666666666667  C 11.6363636363636 9.74652777777778  11.5681818181818 9.60677083333333  11.4318181818182 9.49739583333333  C 11.2954545454545 9.38802083333333  11.1212121212121 9.33333333333333  10.9090909090909 9.33333333333333  L 9.45454545454546 9.33333333333333  C 9.24242424242424 9.33333333333333  9.06818181818182 9.38802083333333  8.93181818181818 9.49739583333333  C 8.79545454545455 9.60677083333333  8.72727272727273 9.74652777777778  9 9.91666666666667  L 9 22.75  C 8.72727272727273 22.9201388888889  8.79545454545455 23.0598958333333  8.93181818181818 23.1692708333333  C 9.06818181818182 23.2786458333333  9.24242424242424 23.3333333333333  9.45454545454546 23.3333333333333  L 10.9090909090909 23.3333333333333  C 11.1212121212121 23.3333333333333  11.2954545454545 23.2786458333333  11.4318181818182 23.1692708333333  Z M 17.25 23.1692708333333  C 17.3863636363636 23.0598958333333  17.4545454545455 22.9201388888889  17 22.75  L 17 9.91666666666667  C 17.4545454545455 9.74652777777778  17.3863636363636 9.60677083333333  17.25 9.49739583333333  C 17.1136363636364 9.38802083333333  16.9393939393939 9.33333333333333  16.7272727272727 9.33333333333333  L 15.2727272727273 9.33333333333333  C 15.0606060606061 9.33333333333333  14.8863636363636 9.38802083333333  14.75 9.49739583333333  C 14.6136363636364 9.60677083333333  14.5454545454545 9.74652777777778  15 9.91666666666667  L 15 22.75  C 14.5454545454545 22.9201388888889  14.6136363636364 23.0598958333333  14.75 23.1692708333333  C 14.8863636363636 23.2786458333333  15.0606060606061 23.3333333333333  15.2727272727273 23.3333333333333  L 16.7272727272727 23.3333333333333  C 16.9393939393939 23.3333333333333  17.1136363636364 23.2786458333333  17.25 23.1692708333333  Z M 23.0681818181818 23.1692708333333  C 23.2045454545455 23.0598958333333  23.2727272727273 22.9201388888889  23 22.75  L 23 9.91666666666667  C 23.2727272727273 9.74652777777778  23.2045454545455 9.60677083333333  23.0681818181818 9.49739583333333  C 22.9318181818182 9.38802083333333  22.7575757575758 9.33333333333333  22.5454545454545 9.33333333333333  L 21.0909090909091 9.33333333333333  C 20.8787878787879 9.33333333333333  20.7045454545455 9.38802083333333  20.5681818181818 9.49739583333333  C 20.4318181818182 9.60677083333333  20.3636363636364 9.74652777777778  20 9.91666666666667  L 20 22.75  C 20.3636363636364 22.9201388888889  20.4318181818182 23.0598958333333  20.5681818181818 23.1692708333333  C 20.7045454545455 23.2786458333333  20.8787878787879 23.3333333333333  21.0909090909091 23.3333333333333  L 22.5454545454545 23.3333333333333  C 22.7575757575758 23.3333333333333  22.9318181818182 23.2786458333333  23.0681818181818 23.1692708333333  Z M 12.0227272727273 2.53385416666667  L 10.9090909090909 5  L 21.0909090909091 5  L 20 2.53385416666667  C 19.8939393939394 2.42447916666667  19.7651515151515 2.35763888888889  19.6136363636364 2.33333333333333  L 12.4090909090909 2.33333333333333  C 12.2575757575758 2.35763888888889  12.1287878787879 2.42447916666667  12.0227272727273 2.53385416666667  Z M 31.7954545454545 4.83072916666667  C 31.9318181818182 4.94010416666667  32 5.07986111111111  32 5.25  L 32 6.41666666666667  C 32 6.58680555555555  31.9318181818182 6.7265625  31.7954545454545 6.8359375  C 31.6590909090909 6.9453125  31.4848484848485 7  31.2727272727273 7  L 29 7  L 29 24.28125  C 29.0909090909091 25.2899305555556  28.7348484848485 26.1618923611111  28.0227272727273 26.8971354166667  C 27.3106060606061 27.6323784722222  26.4545454545455 28  25.4545454545455 28  L 6.54545454545455 28  C 5.54545454545455 28  4.68939393939394 27.64453125  3.97727272727273 26.93359375  C 3.26515151515152 26.22265625  2.90909090909091 25.3628472222222  3 24.3541666666667  L 3 7  L 0.727272727272727 7  C 0.515151515151515 7  0.340909090909091 6.9453125  0.204545454545455 6.8359375  C 0.0681818181818182 6.7265625  0 6.58680555555555  0 6.41666666666667  L 0 5.25  C 0 5.07986111111111  0.0681818181818182 4.94010416666667  0.204545454545455 4.83072916666667  C 0.340909090909091 4.72135416666667  0.515151515151515 4.66666666666667  0.727272727272727 4.66666666666667  L 7.75 4.66666666666667  L 9.34090909090909 1.62239583333333  C 9.56818181818182 1.17274305555555  9.97727272727273 0.789930555555553  10.5681818181818 0.473958333333334  C 11.1590909090909 0.157986111111109  11.7575757575758 0  12.3636363636364 0  L 19.6363636363636 0  C 20.2424242424242 0  20.8409090909091 0.157986111111109  21.4318181818182 0.473958333333334  C 22.0227272727273 0.789930555555553  22.4318181818182 1.17274305555555  22.6590909090909 1.62239583333333  L 24.25 4.66666666666667  L 31.2727272727273 4.66666666666667  C 31.4848484848485 4.66666666666667  31.6590909090909 4.72135416666667  31.7954545454545 4.83072916666667  Z " fill-rule="nonzero" fill="#000000" stroke="none" transform="matrix(1 0 0 1 1004 99 )" />
  </g>
</svg>