﻿<?xml version="1.0" encoding="utf-8"?>
<svg version="1.1" xmlns:xlink="http://www.w3.org/1999/xlink" width="2px" height="1063px" xmlns="http://www.w3.org/2000/svg">
  <g transform="matrix(1 0 0 1 -535 107 )">
    <path d="M 0.5 0  L 0.5 1062  " stroke-width="1" stroke="#797979" fill="none" transform="matrix(1 0 0 1 535 -107 )" />
  </g>
</svg>