﻿<?xml version="1.0" encoding="utf-8"?>
<svg version="1.1" xmlns:xlink="http://www.w3.org/1999/xlink" width="12px" height="12px" viewBox="167 104.5  12 12" xmlns="http://www.w3.org/2000/svg">
  <path d="M 167.5 105  L 178.5 105  L 178.5 116  L 167.5 116  L 167.5 105  Z " fill-rule="nonzero" fill="#ffffff" stroke="none" />
  <path d="M 167.5 105  L 178.5 105  L 178.5 116  L 167.5 116  L 167.5 105  Z " stroke-width="1" stroke="#797979" fill="none" />
  <path d="M 169.571428571429 110.5  L 172.142857142857 113.071428571429  " stroke-width="2.57142857142857" stroke="#797979" fill="none" />
  <path d="M 172.142857142857 113.071428571429  L 176.428571428571 107.071428571429  " stroke-width="2.57142857142857" stroke="#797979" fill="none" />
</svg>