﻿<?xml version="1.0" encoding="utf-8"?>
<svg version="1.1" xmlns:xlink="http://www.w3.org/1999/xlink" width="1033px" height="255px" xmlns="http://www.w3.org/2000/svg">
  <defs>
    <mask fill="white" id="clip30">
      <path d="M 0 255  L 0 0  L 403.786570743405 0  L 1033 0  L 1033 255  L 0 255  Z " fill-rule="evenodd" />
    </mask>
  </defs>
  <g transform="matrix(1 0 0 1 -17 -66 )">
    <path d="M 0 255  L 0 0  L 403.786570743405 0  L 1033 0  L 1033 255  L 0 255  Z " fill-rule="nonzero" fill="#ffffff" stroke="none" transform="matrix(1 0 0 1 17 66 )" />
    <path d="M 0 255  L 0 0  L 403.786570743405 0  L 1033 0  L 1033 255  L 0 255  Z " stroke-width="2" stroke="#797979" fill="none" transform="matrix(1 0 0 1 17 66 )" mask="url(#clip30)" />
  </g>
</svg>