﻿<?xml version="1.0" encoding="utf-8"?>
<svg version="1.1" xmlns:xlink="http://www.w3.org/1999/xlink" width="18px" height="9px" xmlns="http://www.w3.org/2000/svg">
  <g transform="matrix(1 0 0 1 -182 -74 )">
    <path d="M 17.8196392785571 7.36082474226804  C 17.939879759519 7.46391752577319  18 7.58247422680412  18 7.71649484536083  C 18 7.85051546391752  17.939879759519 7.96907216494845  17.8196392785571 8.07216494845361  L 16.9178356713427 8.84536082474227  C 16.7975951903808 8.94845360824742  16.6593186372746 9  16.503006012024 9  C 16.3466933867735 9  16.2084168336673 8.94845360824742  16.0881763527054 8.84536082474227  L 9 2.7680412371134  L 1.91182364729459 8.84536082474227  C 1.79158316633267 8.94845360824742  1.65330661322645 9  1.49699398797595 9  C 1.34068136272545 9  1.20240480961924 8.94845360824742  1.08216432865731 8.84536082474227  L 0.180360721442886 8.07216494845361  C 0.0601202404809621 7.96907216494845  0 7.85051546391752  0 7.71649484536083  C 0 7.58247422680412  0.0601202404809621 7.46391752577319  0.180360721442886 7.36082474226804  L 8.58517034068136 0.154639175257732  C 8.70541082164329 0.0515463917525761  8.8436873747495 0  9 0  C 9.1563126252505 0  9.29458917835671 0.0515463917525761  9.41482965931864 0.154639175257732  L 17.8196392785571 7.36082474226804  Z " fill-rule="nonzero" fill="#8c8c8c" stroke="none" transform="matrix(1 0 0 1 182 74 )" />
  </g>
</svg>