﻿<?xml version="1.0" encoding="utf-8"?>
<svg version="1.1" xmlns:xlink="http://www.w3.org/1999/xlink" width="26px" height="32px" xmlns="http://www.w3.org/2000/svg">
  <g transform="matrix(1 0 0 1 -994 -20 )">
    <path d="M 25.3872053872054 23.9191919191919  C 25.7957351290685 24.4219977553311  26 25.0325476992144  26 25.7508417508418  C 26 26.4691358024691  25.7957351290685 27.0796857463524  25.3872053872054 27.5824915824916  L 22.4107744107744 31.2457912457912  C 22.0022446689113 31.7485970819304  21.5061728395062 32  20.9225589225589 32  C 20.3389450056117 32  19.8428731762065 31.7485970819304  19.4343434343434 31.2457912457912  L 13 23.3265993265993  L 6.56565656565657 31.2457912457912  C 6.15712682379349 31.7485970819304  5.66105499438833 32  5.07744107744108 32  C 4.49382716049383 32  3.99775533108867 31.7485970819304  3.58922558922559 31.2457912457912  L 0.612794612794613 27.5824915824916  C 0.204264870931538 27.0796857463524  0 26.4691358024691  0 25.7508417508418  C 0 25.0325476992144  0.204264870931538 24.4219977553311  0.612794612794613 23.9191919191919  L 7.04713804713805 16  L 0.612794612794613 8.08080808080808  C 0.204264870931538 7.57800224466891  0 6.96745230078563  0 6.24915824915825  C 0 5.53086419753086  0.204264870931538 4.92031425364758  0.612794612794613 4.41750841750842  L 3.58922558922559 0.754208754208754  C 3.99775533108867 0.251402918069584  4.49382716049383 0  5.07744107744108 0  C 5.66105499438833 0  6.15712682379349 0.251402918069584  6.56565656565657 0.754208754208754  L 13 8.67340067340067  L 19.4343434343434 0.754208754208754  C 19.8428731762065 0.251402918069584  20.3389450056117 0  20.9225589225589 0  C 21.5061728395062 0  22.0022446689113 0.251402918069584  22.4107744107744 0.754208754208754  L 25.3872053872054 4.41750841750842  C 25.7957351290685 4.92031425364758  26 5.53086419753086  26 6.24915824915825  C 26 6.96745230078563  25.7957351290685 7.57800224466891  25.3872053872054 8.08080808080808  L 18.952861952862 16  L 25.3872053872054 23.9191919191919  Z " fill-rule="nonzero" fill="#000000" stroke="none" transform="matrix(1 0 0 1 994 20 )" />
  </g>
</svg>