﻿<?xml version="1.0" encoding="utf-8"?>
<svg version="1.1" xmlns:xlink="http://www.w3.org/1999/xlink" width="10px" height="9px" xmlns="http://www.w3.org/2000/svg">
  <g transform="matrix(1 0 0 1 -366 -98 )">
    <path d="M 9.76430976430976 6.72727272727273  C 9.92143658810325 6.86868686868687  10 7.04040404040404  10 7.24242424242424  C 10 7.44444444444445  9.92143658810325 7.61616161616162  9.76430976430976 7.75757575757576  L 8.61952861952862 8.78787878787879  C 8.46240179573513 8.92929292929293  8.2716049382716 9  8.04713804713805 9  C 7.82267115600449 9  7.63187429854097 8.92929292929293  7.47474747474747 8.78787878787879  L 5 6.56060606060606  L 2.52525252525253 8.78787878787879  C 2.36812570145903 8.92929292929293  2.17732884399551 9  1.95286195286195 9  C 1.7283950617284 9  1.53759820426487 8.92929292929293  1.38047138047138 8.78787878787879  L 0.235690235690236 7.75757575757576  C 0.0785634118967453 7.61616161616162  0 7.44444444444445  0 7.24242424242424  C 0 7.04040404040404  0.0785634118967453 6.86868686868687  0.235690235690236 6.72727272727273  L 2.71043771043771 4.5  L 0.235690235690236 2.27272727272727  C 0.0785634118967453 2.13131313131313  0 1.95959595959596  0 1.75757575757576  C 0 1.55555555555556  0.0785634118967453 1.38383838383838  0.235690235690236 1.24242424242424  L 1.38047138047138 0.212121212121212  C 1.53759820426487 0.0707070707070704  1.7283950617284 0  1.95286195286195 0  C 2.17732884399551 0  2.36812570145903 0.0707070707070704  2.52525252525253 0.212121212121212  L 5 2.43939393939394  L 7.47474747474747 0.212121212121212  C 7.63187429854097 0.0707070707070704  7.82267115600449 0  8.04713804713805 0  C 8.2716049382716 0  8.46240179573513 0.0707070707070704  8.61952861952862 0.212121212121212  L 9.76430976430976 1.24242424242424  C 9.92143658810325 1.38383838383838  10 1.55555555555556  10 1.75757575757576  C 10 1.95959595959596  9.92143658810325 2.13131313131313  9.76430976430976 2.27272727272727  L 7.28956228956229 4.5  L 9.76430976430976 6.72727272727273  Z " fill-rule="nonzero" fill="#333333" stroke="none" transform="matrix(1 0 0 1 366 98 )" />
  </g>
</svg>