﻿<?xml version="1.0" encoding="utf-8"?>
<svg version="1.1" xmlns:xlink="http://www.w3.org/1999/xlink" width="13px" height="19px" xmlns="http://www.w3.org/2000/svg">
  <g transform="matrix(1 0 0 1 -1238 -1195 )">
    <path d="M 12.6936026936027 14.2020202020202  C 12.8978675645342 14.5005611672278  13 14.8630751964085  13 15.2895622895623  C 13 15.7160493827161  12.8978675645342 16.0785634118967  12.6936026936027 16.3771043771044  L 11.2053872053872 18.5521885521886  C 11.0011223344557 18.8507295173962  10.7530864197531 19  10.4612794612795 19  C 10.1694725028058 19  9.92143658810325 18.8507295173962  9.71717171717172 18.5521885521886  L 6.5 13.8501683501684  L 3.28282828282828 18.5521885521886  C 3.07856341189675 18.8507295173962  2.83052749719416 19  2.53872053872054 19  C 2.24691358024691 19  1.99887766554433 18.8507295173962  1.79461279461279 18.5521885521886  L 0.306397306397306 16.3771043771044  C 0.102132435465769 16.0785634118967  0 15.7160493827161  0 15.2895622895623  C 0 14.8630751964085  0.102132435465769 14.5005611672278  0.306397306397306 14.2020202020202  L 3.52356902356902 9.5  L 0.306397306397306 4.7979797979798  C 0.102132435465769 4.49943883277216  0 4.13692480359147  0 3.71043771043771  C 0 3.28395061728395  0.102132435465769 2.92143658810325  0.306397306397306 2.62289562289562  L 1.79461279461279 0.447811447811448  C 1.99887766554433 0.149270482603815  2.24691358024691 0  2.53872053872054 0  C 2.83052749719416 0  3.07856341189675 0.149270482603815  3.28282828282828 0.447811447811448  L 6.5 5.14983164983165  L 9.71717171717172 0.447811447811448  C 9.92143658810325 0.149270482603815  10.1694725028058 0  10.4612794612795 0  C 10.7530864197531 0  11.0011223344557 0.149270482603815  11.2053872053872 0.447811447811448  L 12.6936026936027 2.62289562289562  C 12.8978675645342 2.92143658810325  13 3.28395061728395  13 3.71043771043771  C 13 4.13692480359147  12.8978675645342 4.49943883277216  12.6936026936027 4.7979797979798  L 9.47643097643098 9.5  L 12.6936026936027 14.2020202020202  Z " fill-rule="nonzero" fill="#333333" stroke="none" transform="matrix(1 0 0 1 1238 1195 )" />
  </g>
</svg>