﻿<?xml version="1.0" encoding="utf-8"?>
<svg version="1.1" xmlns:xlink="http://www.w3.org/1999/xlink" width="38px" height="35px" xmlns="http://www.w3.org/2000/svg">
  <g transform="matrix(1 0 0 1 -19 -18 )">
    <path d="M 19 18  L 57 18  L 57 53  L 19 53  L 19 18  " fill-rule="nonzero" fill="#cccccc" stroke="none" />
    <path d="M 21 20  L 55 20  L 55 51  L 21 51  L 21 20  " fill-rule="nonzero" fill="#ffffff" stroke="none" />
    <path d="M 41.385 28.5  C 39.915 28.5  38.76 27.345  38.76 25.875  C 38.76 24.405  39.915 23.25  41.385 23.25  C 42.855 23.25  44.01 24.405  44.01 25.875  C 44.01 27.345  42.855 28.5  41.385 28.5  " fill-rule="nonzero" fill="#cccccc" stroke="none" />
    <path d="M 22 50  L 22 34.05  L 30 26.8  L 41.2 33.9736842105263  L 47.6 31.15  L 54 33.9736842105263  L 54 50  L 22 50  " fill-rule="nonzero" fill="#169bd5" stroke="none" />
  </g>
</svg>