﻿<?xml version="1.0" encoding="utf-8"?>
<svg version="1.1" xmlns:xlink="http://www.w3.org/1999/xlink" width="20px" height="25px" xmlns="http://www.w3.org/2000/svg">
  <g transform="matrix(1 0 0 1 -1181 -323 )">
    <path d="M 19.55078125 14.7379557291667  C 19.6332465277778 14.8410373263889  19.6744791666667 14.9631076388889  19.6744791666667 15.1041666666667  C 19.6744791666667 15.1584201388889  19.6701388888889 15.1963975694444  19.6614583333333 15.2180989583333  C 19.1059027777778 18.1260850694444  17.9427083333333 20.4833984375  16.171875 22.2900390625  C 14.4010416666667 24.0966796875  12.3263888888889 25  9.94791666666667 25  C 8.68055555555556 25  7.45442708333333 24.7016059027778  6.26953125 24.1048177083333  C 5.08463541666667 23.5080295138889  4.02777777777778 22.65625  3.09895833333333 21.5494791666667  L 1.41927083333333 23.6490885416667  C 1.25434027777778 23.8552517361111  1.05902777777778 23.9583333333333  0.833333333333333 23.9583333333333  C 0.607638888888889 23.9583333333333  0.412326388888889 23.8552517361111  0.247395833333333 23.6490885416667  C 0.0824652777777778 23.4429253472222  0 23.1987847222222  0 22.9166666666667  L 0 15.625  C 0 15.3428819444444  0.0824652777777778 15.0987413194444  0.247395833333333 14.892578125  C 0.412326388888889 14.6864149305556  0.607638888888889 14.5833333333333  0.833333333333333 14.5833333333333  L 6.66666666666667 14.5833333333333  C 6.89236111111111 14.5833333333333  7.08767361111111 14.6864149305556  7.25260416666667 14.892578125  C 7.41753472222222 15.0987413194444  7.5 15.3428819444444  7.5 15.625  C 7.5 15.9071180555556  7.41753472222222 16.1512586805556  7.25260416666667 16.357421875  L 5.46875 18.5872395833333  C 6.08506944444445 19.3033854166667  6.78385416666667 19.8567708333333  7.56510416666667 20.2473958333333  C 8.34635416666667 20.6380208333333  9.15798611111111 20.8333333333333  10 20.8333333333333  C 11.1631944444444 20.8333333333333  12.2482638888889 20.4806857638889  13.2552083333333 19.775390625  C 14.2621527777778 19.0700954861111  15.0694444444444 18.0989583333333  15.6770833333333 16.8619791666667  C 15.7725694444444 16.6775173611111  16.0026041666667 16.0427517361111  16.3671875 14.9576822916667  C 16.4366319444444 14.7081163194444  16.5668402777778 14.5833333333333  16.7578125 14.5833333333333  L 19.2578125 14.5833333333333  C 19.3706597222222 14.5833333333333  19.4683159722222 14.6348741319444  19.55078125 14.7379557291667  Z M 19.7526041666667 1.35091145833333  C 19.9175347222222 1.55707465277778  20 1.80121527777778  20 2.08333333333333  L 20 9.375  C 20 9.65711805555556  19.9175347222222 9.90125868055556  19.7526041666667 10.107421875  C 19.5876736111111 10.3135850694444  19.3923611111111 10.4166666666667  19.1666666666667 10.4166666666667  L 13.3333333333333 10.4166666666667  C 13.1076388888889 10.4166666666667  12.9123263888889 10.3135850694444  12.7473958333333 10.107421875  C 12.5824652777778 9.90125868055556  12.5 9.65711805555556  12.5 9.375  C 12.5 9.09288194444444  12.5824652777778 8.84874131944444  12.7473958333333 8.642578125  L 14.5442708333333 6.396484375  C 13.2595486111111 4.90993923611111  11.7447916666667 4.16666666666667  10 4.16666666666667  C 8.83680555555556 4.16666666666667  7.75173611111111 4.51931423611111  6.74479166666667 5.224609375  C 5.73784722222222 5.92990451388889  4.93055555555556 6.90104166666667  4.32291666666667 8.13802083333333  C 4.22743055555556 8.32248263888889  3.99739583333333 8.95724826388889  3.6328125 10.0423177083333  C 3.56336805555556 10.2918836805556  3.43315972222222 10.4166666666667  3.2421875 10.4166666666667  L 0.651041666666667 10.4166666666667  C 0.538194444444444 10.4166666666667  0.440538194444444 10.3651258680556  0.358072916666667 10.2620442708333  C 0.275607638888889 10.1589626736111  0.234375 10.0368923611111  0.234375 9.89583333333333  L 0.234375 9.78190104166667  C 0.798611111111111 6.87391493055556  1.97048611111111 4.5166015625  3.75 2.7099609375  C 5.52951388888889 0.9033203125  7.61284722222222 0  10 0  C 11.2673611111111 0  12.5 0.301106770833334  13.6979166666667 0.9033203125  C 14.8958333333333 1.50553385416667  15.9592013888889 2.35460069444444  16.8880208333333 3.45052083333333  L 18.5807291666667 1.35091145833333  C 18.7456597222222 1.14474826388889  18.9409722222222 1.04166666666667  19.1666666666667 1.04166666666667  C 19.3923611111111 1.04166666666667  19.5876736111111 1.14474826388889  19.7526041666667 1.35091145833333  Z " fill-rule="nonzero" fill="#000000" stroke="none" transform="matrix(1 0 0 1 1181 323 )" />
  </g>
</svg>