﻿<?xml version="1.0" encoding="utf-8"?>
<svg version="1.1" xmlns:xlink="http://www.w3.org/1999/xlink" width="12px" height="12px" viewBox="593 1633  12 12" xmlns="http://www.w3.org/2000/svg">
  <path d="M 599 1633  C 602.36 1633  605 1635.64  605 1639  C 605 1642.36  602.36 1645  599 1645  C 595.64 1645  593 1642.36  593 1639  C 593 1635.64  595.64 1633  599 1633  Z " fill-rule="nonzero" fill="#f0f0f0" stroke="none" />
  <path d="M 599 1633.5  C 602.08 1633.5  604.5 1635.92  604.5 1639  C 604.5 1642.08  602.08 1644.5  599 1644.5  C 595.92 1644.5  593.5 1642.08  593.5 1639  C 593.5 1635.92  595.92 1633.5  599 1633.5  Z " stroke-width="1" stroke="#797979" fill="none" />
</svg>