﻿<?xml version="1.0" encoding="utf-8"?>
<svg version="1.1" xmlns:xlink="http://www.w3.org/1999/xlink" width="12px" height="12px" viewBox="102 399.5  12 12" xmlns="http://www.w3.org/2000/svg">
  <path d="M 108 399.5  C 111.36 399.5  114 402.14  114 405.5  C 114 408.86  111.36 411.5  108 411.5  C 104.64 411.5  102 408.86  102 405.5  C 102 402.14  104.64 399.5  108 399.5  Z " fill-rule="nonzero" fill="#ffffff" stroke="none" />
  <path d="M 108 400  C 111.08 400  113.5 402.42  113.5 405.5  C 113.5 408.58  111.08 411  108 411  C 104.92 411  102.5 408.58  102.5 405.5  C 102.5 402.42  104.92 400  108 400  Z " stroke-width="1" stroke="#797979" fill="none" />
  <path d="M 108 408.5  C 106.32 408.5  105 407.18  105 405.5  C 105 403.82  106.32 402.5  108 402.5  C 109.68 402.5  111 403.82  111 405.5  C 111 407.18  109.68 408.5  108 408.5  " fill-rule="nonzero" fill="#797979" stroke="none" />
</svg>