﻿<?xml version="1.0" encoding="utf-8"?>
<svg version="1.1" xmlns:xlink="http://www.w3.org/1999/xlink" width="12px" height="12px" viewBox="92 446.5  12 12" xmlns="http://www.w3.org/2000/svg">
  <path d="M 98 446.5  C 101.36 446.5  104 449.14  104 452.5  C 104 455.86  101.36 458.5  98 458.5  C 94.64 458.5  92 455.86  92 452.5  C 92 449.14  94.64 446.5  98 446.5  Z " fill-rule="nonzero" fill="#ffffff" stroke="none" />
  <path d="M 98 447  C 101.08 447  103.5 449.42  103.5 452.5  C 103.5 455.58  101.08 458  98 458  C 94.92 458  92.5 455.58  92.5 452.5  C 92.5 449.42  94.92 447  98 447  Z " stroke-width="1" stroke="#797979" fill="none" />
  <path d="M 98 455.5  C 96.32 455.5  95 454.18  95 452.5  C 95 450.82  96.32 449.5  98 449.5  C 99.68 449.5  101 450.82  101 452.5  C 101 454.18  99.68 455.5  98 455.5  " fill-rule="nonzero" fill="#797979" stroke="none" />
</svg>