﻿<?xml version="1.0" encoding="utf-8"?>
<svg version="1.1" xmlns:xlink="http://www.w3.org/1999/xlink" width="59px" height="66px" xmlns="http://www.w3.org/2000/svg">
  <g transform="matrix(1 0 0 1 -90 -365 )">
    <path d="M 119.5 365  C 136.02 365  149 379.52  149 398  C 149 416.48  136.02 431  119.5 431  C 102.98 431  90 416.48  90 398  C 90 379.52  102.98 365  119.5 365  Z " fill-rule="nonzero" fill="#ffffff" stroke="none" />
    <path d="M 119.5 365.5  C 135.74 365.5  148.5 379.8  148.5 398  C 148.5 416.2  135.74 430.5  119.5 430.5  C 103.26 430.5  90.5 416.2  90.5 398  C 90.5 379.8  103.26 365.5  119.5 365.5  Z " stroke-width="1" stroke="#797979" fill="none" />
  </g>
</svg>