﻿<?xml version="1.0" encoding="utf-8"?>
<svg version="1.1" xmlns:xlink="http://www.w3.org/1999/xlink" width="12px" height="12px" viewBox="308 436.5  12 12" xmlns="http://www.w3.org/2000/svg">
  <path d="M 314 436.5  C 317.36 436.5  320 439.14  320 442.5  C 320 445.86  317.36 448.5  314 448.5  C 310.64 448.5  308 445.86  308 442.5  C 308 439.14  310.64 436.5  314 436.5  Z " fill-rule="nonzero" fill="#ffffff" stroke="none" />
  <path d="M 314 437  C 317.08 437  319.5 439.42  319.5 442.5  C 319.5 445.58  317.08 448  314 448  C 310.92 448  308.5 445.58  308.5 442.5  C 308.5 439.42  310.92 437  314 437  Z " stroke-width="1" stroke="#797979" fill="none" />
</svg>