﻿<?xml version="1.0" encoding="utf-8"?>
<svg version="1.1" xmlns:xlink="http://www.w3.org/1999/xlink" width="12px" height="12px" viewBox="219 401.5  12 12" xmlns="http://www.w3.org/2000/svg">
  <path d="M 225 401.5  C 228.36 401.5  231 404.14  231 407.5  C 231 410.86  228.36 413.5  225 413.5  C 221.64 413.5  219 410.86  219 407.5  C 219 404.14  221.64 401.5  225 401.5  Z " fill-rule="nonzero" fill="#ffffff" stroke="none" />
  <path d="M 225 402  C 228.08 402  230.5 404.42  230.5 407.5  C 230.5 410.58  228.08 413  225 413  C 221.92 413  219.5 410.58  219.5 407.5  C 219.5 404.42  221.92 402  225 402  Z " stroke-width="1" stroke="#797979" fill="none" />
</svg>