﻿<?xml version="1.0" encoding="utf-8"?>
<svg version="1.1" xmlns:xlink="http://www.w3.org/1999/xlink" width="12px" height="12px" viewBox="307 456  12 12" xmlns="http://www.w3.org/2000/svg">
  <path d="M 313 456  C 316.36 456  319 458.64  319 462  C 319 465.36  316.36 468  313 468  C 309.64 468  307 465.36  307 462  C 307 458.64  309.64 456  313 456  Z " fill-rule="nonzero" fill="#ffffff" stroke="none" />
  <path d="M 313 456.5  C 316.08 456.5  318.5 458.92  318.5 462  C 318.5 465.08  316.08 467.5  313 467.5  C 309.92 467.5  307.5 465.08  307.5 462  C 307.5 458.92  309.92 456.5  313 456.5  Z " stroke-width="1" stroke="#797979" fill="none" />
</svg>