﻿<?xml version="1.0" encoding="utf-8"?>
<svg version="1.1" xmlns:xlink="http://www.w3.org/1999/xlink" width="12px" height="12px" viewBox="188 435.5  12 12" xmlns="http://www.w3.org/2000/svg">
  <path d="M 194 435.5  C 197.36 435.5  200 438.14  200 441.5  C 200 444.86  197.36 447.5  194 447.5  C 190.64 447.5  188 444.86  188 441.5  C 188 438.14  190.64 435.5  194 435.5  Z " fill-rule="nonzero" fill="#f0f0f0" stroke="none" />
  <path d="M 194 436  C 197.08 436  199.5 438.42  199.5 441.5  C 199.5 444.58  197.08 447  194 447  C 190.92 447  188.5 444.58  188.5 441.5  C 188.5 438.42  190.92 436  194 436  Z " stroke-width="1" stroke="#797979" fill="none" />
</svg>