﻿<?xml version="1.0" encoding="utf-8"?>
<svg version="1.1" xmlns:xlink="http://www.w3.org/1999/xlink" width="36px" height="16px" xmlns="http://www.w3.org/2000/svg">
  <g transform="matrix(1 0 0 1 -360 -407 )">
    <path d="M 35.33203125 0.527777777777779  C 35.77734375 0.879629629629628  36 1.29629629629629  36 1.77777777777778  C 36 2.25925925925926  35.77734375 2.67592592592592  35.33203125 3.02777777777778  L 19.58203125 15.4722222222222  C 19.13671875 15.8240740740741  18.609375 16  18 16  C 17.390625 16  16.86328125 15.8240740740741  16.41796875 15.4722222222222  L 0.66796875 3.02777777777778  C 0.22265625 2.67592592592592  0 2.25925925925926  0 1.77777777777778  C 0 1.29629629629629  0.22265625 0.879629629629628  0.66796875 0.527777777777779  C 1.11328125 0.175925925925924  1.640625 0  2.25 0  L 33.75 0  C 34.359375 0  34.88671875 0.175925925925924  35.33203125 0.527777777777779  Z " fill-rule="nonzero" fill="#000000" stroke="none" transform="matrix(1 0 0 1 360 407 )" />
  </g>
</svg>