﻿<?xml version="1.0" encoding="utf-8"?>
<svg version="1.1" xmlns:xlink="http://www.w3.org/1999/xlink" width="12px" height="12px" viewBox="966 373.5  12 12" xmlns="http://www.w3.org/2000/svg">
  <path d="M 966.5 374  L 977.5 374  L 977.5 385  L 966.5 385  L 966.5 374  Z " fill-rule="nonzero" fill="#ffffff" stroke="none" />
  <path d="M 966.5 374  L 977.5 374  L 977.5 385  L 966.5 385  L 966.5 374  Z " stroke-width="1" stroke="#797979" fill="none" />
  <path d="M 968.571428571429 379.5  L 971.142857142857 382.071428571429  " stroke-width="2.57142857142857" stroke="#797979" fill="none" />
  <path d="M 971.142857142857 382.071428571429  L 975.428571428571 376.071428571429  " stroke-width="2.57142857142857" stroke="#797979" fill="none" />
</svg>