﻿<?xml version="1.0" encoding="utf-8"?>
<svg version="1.1" xmlns:xlink="http://www.w3.org/1999/xlink" width="36px" height="15px" xmlns="http://www.w3.org/2000/svg">
  <g transform="matrix(1 0 0 1 -359 -750 )">
    <path d="M 35.33203125 0.494791666666667  C 35.77734375 0.824652777777776  36 1.21527777777777  36 1.66666666666667  C 36 2.11805555555555  35.77734375 2.50868055555555  35.33203125 2.83854166666667  L 19.58203125 14.5052083333333  C 19.13671875 14.8350694444444  18.609375 15  18 15  C 17.390625 15  16.86328125 14.8350694444444  16.41796875 14.5052083333333  L 0.66796875 2.83854166666667  C 0.22265625 2.50868055555555  0 2.11805555555555  0 1.66666666666667  C 0 1.21527777777777  0.22265625 0.824652777777776  0.66796875 0.494791666666667  C 1.11328125 0.164930555555554  1.640625 0  2.25 0  L 33.75 0  C 34.359375 0  34.88671875 0.164930555555554  35.33203125 0.494791666666667  Z " fill-rule="nonzero" fill="#000000" stroke="none" transform="matrix(1 0 0 1 359 750 )" />
  </g>
</svg>